 2111, 125, -31, IN, ZL, PU, FR, 0
 -25, -132, 4197, NA, ZL, PU, FR, 0
 -25, -132, 4219, NA, ZL, PU, FR, 0
 -31, -136, 4219, NA, ZL, PU, FR, 0
 -27, -134, 4211, NA, ZL, PU, FR, 0
 -21, -132, 4214, NA, ZL, PU, FR, 0
 -21, -132, 4206, NA, ZL, PU, FR, 0
 -27, -135, 4206, NA, ZL, PU, FR, 0
 -26, -135, 4214, NA, ZL, PU, FR, 0
 -28, -136, 4205, NA, ZL, PU, FR, 0
 -28, -134, 4215, NA, ZL, PU, FR, 0
 -27, -134, 4215, NA, ZL, PU, FR, 0
 -26, -133, 4208, NA, ZL, PU, FR, 0
 -26, -139, 4212, NA, ZL, PU, FR, 0
 -26, -136, 4203, NA, ZL, PU, FR, 0
 -23, -136, 4203, NA, ZL, PU, FR, 0
 -27, -134, 4218, NA, ZL, PU, FR, 0
 -28, -132, 4213, NA, ZL, PU, FR, 0
 -31, -135, 4212, NA, ZL, PU, FR, 0
 -31, -135, 4212, NA, ZL, PU, FR, 0
 -27, -137, 4219, NA, ZL, PU, FR, 0
 -46, -196, 4193, NA, ZL, PU, FR, 0
 -29, -127, 4208, NA, ZL, PU, FR, 0
 -29, -127, 4215, NA, ZL, PU, FR, 0
 -21, -153, 4215, NA, ZL, PU, FR, 0
 -28, -153, 4205, NA, ZL, PU, FR, 0
 -29, -157, 4219, NA, ZL, PU, FR, 0
 -29, -157, 4210, NA, ZL, PU, FR, 0
 -1, -176, 4210, NA, ZL, PU, FR, 0
 -27, -160, 4219, NA, ZL, PU, FR, 0
 -24, -160, 4216, NA, ZL, PU, FR, 0
 -24, -147, 4213, NA, ZL, PU, FR, 0
 -33, -147, 4213, NA, ZL, PU, FR, 0
 -26, -164, 4203, NA, ZL, PU, FR, 0
 -31, -164, 4203, NA, ZL, PU, FR, 0
 -31, -158, 4207, NA, ZL, PU, FR, 0
 -32, -158, 4207, NA, ZL, PU, FR, 0
 -29, -167, 4212, NA, ZL, PU, FR, 0
 -26, -173, 4197, NA, ZL, PU, FR, 0
 -27, -151, 4221, NA, ZL, PU, FR, 0
 -27, -151, 4221, NA, ZL, PU, FR, 0
 -25, -154, 4208, NA, ZL, PU, FR, 0
 -24, -156, 4209, NA, ZL, PU, FR, 0
 -30, -159, 4208, NA, ZL, PU, FR, 0
 -30, -159, 4212, NA, ZL, PU, FR, 0
 -21, -154, 4212, NA, ZL, PU, FR, 0
 -30, -163, 4209, NA, ZL, PU, FR, 0
 -25, -157, 4201, NA, ZL, PU, FR, 0
 -25, -157, 4211, NA, ZL, PU, FR, 0
 -25, -151, 4211, NA, ZL, PU, FR, 0
 -8, -169, 4142, NA, ZL, PU, FR, 0
 -312, 107, 4303, NA, ZL, PU, FR, 0
 -312, 32, 6119, NA, ZL, PU, FR, 0
 -294, 32, 6119, IN, NL, PU, FR, 0
 376, -604, 5028, IN, NL, PU, FR, 0
 517, -854, 3548, NA, NL, PU, FR, 0
 1140, -2482, 1600, NA, NL, PU, FR, 0
 1140, -2482, 1410, NA, NL, PU, FR, 0
 905, -3296, 1410, NA, NL, PU, FR, 0
 691, -3474, 1950, NA, NL, PU, FR, 0
 647, -2896, 676, IN, NL, PU, BA, 0
 647, -3099, -2281, NA, NL, PU, BA, 0
 1180, -3099, -2281, NA, NL, PU, BA, 0
 1002, -2879, -2949, NA, NL, PU, BA, 0
 362, -1741, -2666, NA, NL, LR, BA, 0
 1408, -226, -3958, NA, NL, LR, BA, 0
 1408, -224, -4347, NA, NL, LR, BA, 0
 2457, -224, -4347, NA, NL, LR, BA, 0
 1938, -357, -4630, NA, NL, LR, BA, 0
 1344, -452, -4962, NA, NL, LR, BA, 0
 1676, 80, -5457, NA, NL, LR, BA, 0
 1676, 80, -2840, IN, NL, LR, BA, 0
 1405, -433, -2840, IN, NL, PU, BA, 0
 983, -2016, -1262, IN, NL, PU, BA, 0
 913, -2360, 282, IN, NL, PU, FR, 0
 913, -1798, 2142, NA, NL, PU, FR, 0
 961, -1798, 2142, IN, ZL, PU, FR, 0
 615, -780, 4582, NA, ZL, PU, FR, 0
 82, -680, 6325, NA, ZL, PU, FR, 0
 -269, -300, 5067, IN, ZL, LR, FR, 0
 -269, -382, 5060, NA, ZL, LR, FR, 0
 510, -382, 5060, NA, ZL, LR, FR, 0
 272, -732, 5627, IN, NL, PU, FR, 0
 468, -1144, 4520, NA, NL, PU, FR, 0
 1291, -2112, 1918, NA, NL, PU, FR, 0
 1291, -2112, 590, NA, NL, PU, FR, 0
 682, -2926, 590, IN, NL, PU, BA, 0
 660, -3084, -1071, NA, NL, PU, BA, 0
 372, -3066, -1133, NA, NL, PU, BA, 0
 372, -1826, -2934, NA, NL, PU, BA, 0
 376, -1826, -2934, NA, NL, PU, BA, 0
 661, -1313, -4742, NA, NL, PU, BA, 0
 30, -1488, -4435, NA, NL, PU, BA, 0
 -16, -1231, -4716, NA, NL, PU, BA, 0
 -16, -1231, -3989, IN, ZL, PU, BA, 0
 -352, -1215, -3989, IN, ZL, PU, BA, 0
 -357, -807, -3970, NA, ZL, PU, BA, 0
 -344, -703, -5172, NA, ZL, PU, BA, 0
 -718, -827, -5178, NA, ZL, PU, BA, 0
 -718, -827, -5174, NA, NL, PU, BA, 0
 -308, -808, -5174, NA, NL, PU, BA, 0
 -280, -1493, -3550, NA, NL, PU, BA, 0
 699, -2000, -1567, IN, NL, PU, FR, 0
 699, -2647, 495, NA, NL, PU, FR, 0
 758, -2647, 495, NA, NL, PU, FR, 0
 369, -2008, 2038, NA, NL, PU, FR, 0
 276, -1538, 4009, NA, NL, PU, FR, 0
 27, -875, 4082, NA, NL, PU, FR, 0
 27, -875, 5481, IN, ZL, PU, FR, 0
 -672, -187, 5481, NA, ZL, PU, FR, 0
 -230, 73, 4571, NA, ZL, PU, FR, 0
 -345, 133, 4776, NA, ZL, PU, FR, 0
 -345, 270, 4562, NA, ZL, PU, FR, 0
 -403, 270, 4562, NA, ZL, PU, FR, 0
 -540, 261, 5387, NA, ZL, PU, FR, 0
 -512, 132, 5195, NA, NL, LL, FR, 0
 -452, -199, 4887, IN, ZL, LR, FR, 0
 -452, -199, 2501, IN, NL, PU, FR, 0
 254, -1336, 2501, NA, NL, PU, FR, 0
 583, -2552, 1209, NA, NL, PU, FR, 0
 722, -2566, 4, IN, NL, PU, BA, 0
 271, -2085, -3047, NA, NL, PU, BA, 0
 271, -2085, -4144, NA, NL, PU, BA, 0
 748, -1450, -4144, NA, NL, PU, BA, 0
 1612, -1211, -5055, NA, NL, PU, BA, 0
 761, -1153, -4672, NA, NL, PU, BA, 0
 761, -1507, -4077, NA, NL, PU, BA, 0
 -116, -1507, -4077, NA, NL, PU, BA, 0
 -1104, -1572, -4688, NA, NL, PU, BA, 0
 -1664, -2005, -3963, NA, NL, PU, BA, 0
 -2405, -1324, -4828, IN, NL, LL, BA, 0
 -2405, -1324, -3346, NA, NL, LL, BA, 0
 -2692, -920, -3346, NA, NL, LL, BA, 0
 -1812, -1217, -2628, IN, NL, PU, BA, 0
 705, -1863, -1977, NA, NL, PU, BA, 0
 2042, -1367, -1121, IN, NL, LR, FR, 0
 2042, -1367, -1586, IN, NL, LR, BA, 0
 3764, -445, -1586, IN, NL, LR, FR, 0
 4280, 337, 665, IN, NL, LR, BA, 0
 4838, -13, -1173, NA, NL, LR, BA, 0
 4838, 210, -1522, NA, NL, LR, BA, 0
 5664, 210, -1522, NA, NL, LR, BA, 0
 5316, 211, -2021, NA, NL, LR, BA, 0
 4373, -448, -1713, NA, NL, LR, BA, 0
 1991, -1604, -1701, NA, NL, LR, BA, 0
 1991, -1604, -1301, IN, NL, PU, BA, 0
 1602, -2478, -1301, NA, NL, PU, BA, 0
 -232, -2739, -2775, NA, NL, PU, BA, 0
 -1631, -2489, -2649, NA, NL, PU, BA, 0
 -1631, -2522, -2352, NA, NL, PU, BA, 0
 -78, -2522, -2352, NA, NL, PU, BA, 0
 108, -2099, -2922, IN, NL, LR, BA, 0
 2263, -1306, -2918, NA, NL, LR, BA, 0
 2937, -757, -2854, NA, NL, LR, BA, 0
 2937, -562, -2041, NA, NL, LR, BA, 0
 3975, -562, -2041, NA, NL, LR, BA, 0
 4086, -853, -1147, NA, NL, LR, BA, 0
 4647, -614, -1265, NA, NL, LR, BA, 0
 4251, -491, -1167, NA, NL, LR, BA, 0
 4251, -491, -1067, NA, NL, LR, BA, 0
 4543, -614, -1067, NA, NL, LR, BA, 0
 4536, -874, -1746, NA, NL, LR, BA, 0
 4040, -1046, -1657, NA, NL, LR, BA, 0
 4040, -1253, -1442, NA, NL, LR, BA, 0
 3941, -1253, -1442, IN, NL, PU, BA, 0
 2407, -1719, -870, IN, NL, PU, FR, 0
 1158, -2803, 740, NA, NL, PU, FR, 0
 184, -2784, 2422, NA, NL, PU, FR, 0
 184, -1337, 2233, IN, NL, LL, FR, 0
 613, -1337, 2233, IN, NL, LR, FR, 0
 -304, -1014, 3517, NA, NL, LR, FR, 0
 -72, -60, 5792, IN, NL, LL, FR, 0
 404, -267, 4549, IN, ZL, LR, FR, 0
 404, -267, 4195, NA, ZL, LR, FR, 0
 392, -171, 4195, IN, NL, LR, FR, 0
 1039, -458, 4958, NA, NL, LR, FR, 0
 1675, -771, 5017, NA, NL, LR, FR, 0
 1675, -1214, 5245, IN, NL, PU, FR, 0
 2173, -1214, 5245, NA, NL, PU, FR, 0
 940, -1699, 3517, NA, NL, PU, FR, 0
 970, -2612, 2390, NA, NL, PU, FR, 0
 866, -3155, 1363, NA, NL, PU, FR, 0
 866, -3076, 52, IN, NL, PU, BA, 0
 948, -3076, 52, NA, NL, PU, BA, 0
 468, -2863, -1667, NA, NL, PU, BA, 0
 691, -2648, -2642, NA, NL, PU, BA, 0
 857, -2481, -3125, NA, NL, PU, BA, 0
 857, -2481, -3127, NA, NL, PU, BA, 0
 1132, -2197, -3127, NA, NL, PU, BA, 0
 1669, -1690, -3059, NA, NL, PU, BA, 0
 1855, -1347, -3330, IN, NL, LR, BA, 0
 1855, -1230, -3542, NA, NL, LR, BA, 0
 2448, -1230, -3542, NA, NL, LR, BA, 0
 2820, -1049, -3322, NA, NL, LR, BA, 0
 2706, -1473, -2976, NA, NL, LR, BA, 0
 2468, -1339, -2595, NA, NL, LR, BA, 0
 2468, -1339, -2566, NA, NL, LR, BA, 0
 3013, -1038, -2566, NA, NL, LR, BA, 0
 3571, -864, -2867, NA, NL, LR, BA, 0
 4135, -600, -2724, NA, NL, LR, BA, 0
 4090, -687, -2568, NA, NL, LR, BA, 0
 4090, -687, -2152, NA, NL, LR, BA, 0
 3618, -1320, -2152, NA, NL, LR, BA, 0
 3686, -1335, -1782, NA, NL, LR, BA, 0
 3320, -1706, -1892, NA, NL, LR, BA, 0
 3320, -2410, -314, IN, NL, PU, BA, 0
 2279, -2410, -314, NA, NL, PU, BA, 0
 1645, -3143, -807, NA, NL, PU, BA, 0
 1495, -3138, -697, IN, NL, PU, FR, 0
 833, -3307, 1048, NA, NL, PU, FR, 0
 833, -2660, 1185, NA, NL, PU, FR, 0
 929, -2660, 1185, NA, NL, PU, FR, 0
 702, -2186, 2492, NA, NL, PU, FR, 0
 -425, -2194, 4310, NA, NL, PU, FR, 0
 534, -1887, 4061, NA, NL, PU, FR, 0
 534, -1887, 4359, NA, NL, PU, FR, 0
 774, -1654, 4359, NA, NL, PU, FR, 0
 109, -1786, 4311, NA, NL, PU, FR, 0
 1080, -1753, 4650, NA, NL, PU, FR, 0
 1080, -1989, 4140, NA, NL, PU, FR, 0
 869, -1989, 4140, NA, NL, PU, FR, 0
 1182, -2383, 3028, NA, NL, PU, FR, 0
 1450, -2723, 3178, NA, NL, PU, FR, 0
 1367, -2987, 2151, NA, NL, PU, FR, 0
 1367, -3462, 1698, NA, NL, PU, FR, 0
 729, -3462, 1698, NA, NL, PU, FR, 0
 1422, -2801, 2109, IN, NL, LR, FR, 0
 2279, -1984, 1504, NA, NL, LR, FR, 0
 3208, -1866, 2105, NA, NL, LR, FR, 0
 3208, -1866, 1985, NA, NL, LR, FR, 0
 3171, -1857, 1985, NA, NL, LR, FR, 0
 4172, -1313, 1103, NA, NL, LR, FR, 0
 3067, -1756, 1696, NA, NL, LR, FR, 0
 3067, -2001, 1778, NA, NL, LR, FR, 0
 2947, -2001, 1581, NA, NL, LR, FR, 0
 3395, -1562, 1581, NA, NL, LR, FR, 0
 3886, -1408, 315, NA, NL, LR, FR, 0
 3947, -1476, 321, NA, NL, LR, FR, 0
 3947, -1401, -342, NA, NL, LR, FR, 0
 3892, -1401, -342, NA, NL, LR, FR, 0
 3938, -1390, -17, IN, NL, LR, BA, 0
 3518, -1653, -831, NA, NL, LR, BA, 0
 3782, -1423, -1516, NA, NL, LR, BA, 0
 3782, -1423, -1429, NA, NL, LR, BA, 0
 3598, -1654, -1429, NA, NL, LR, BA, 0
 3214, -1351, -1706, NA, NL, LR, BA, 0
 3041, -1556, -1456, NA, NL, LR, BA, 0
 3041, -2071, -1204, NA, NL, LR, BA, 0
 3147, -2071, -1684, NA, NL, LR, BA, 0
 3341, -1971, -1684, NA, NL, LR, BA, 0
 3286, -1831, -1900, NA, NL, LR, BA, 0
 2948, -1737, -2303, NA, NL, LR, BA, 0
 2948, -2009, -2325, NA, NL, LR, BA, 0
 2621, -2009, -2325, NA, NL, LR, BA, 0
 2574, -2180, -2723, NA, NL, LR, BA, 0
 2667, -2386, -2948, NA, NL, LR, BA, 0
 2609, -2202, -3110, NA, NL, LR, BA, 0
 2609, -2202, -2943, NA, NL, LR, BA, 0
 2414, -2116, -2943, NA, NL, LR, BA, 0
 2807, -2563, -2258, NA, NL, LR, BA, 0
 2124, -2941, -1161, IN, NL, PU, BA, 0
 1614, -3520, -395, NA, NL, PU, BA, 0
 1614, -3520, -179, NA, NL, PU, BA, 0
 1575, -3571, -179, NA, NL, PU, BA, 0
 1396, -3522, 6, NA, NL, PU, BA, 0
 1226, -3750, 562, IN, NL, PU, FR, 0
 1226, -3474, 924, NA, NL, PU, FR, 0
 1407, -3474, 924, NA, NL, PU, FR, 0
 1177, -3248, 1257, NA, NL, PU, FR, 0
 960, -3116, 1557, NA, NL, PU, FR, 0
 1001, -2994, 2126, NA, NL, PU, FR, 0
 1001, -2994, 2661, NA, NL, PU, FR, 0
 1228, -2608, 2661, NA, NL, PU, FR, 0
 1195, -2491, 3322, NA, NL, PU, FR, 0
 898, -1749, 3748, NA, NL, PU, FR, 0
 898, -1612, 4359, NA, NL, PU, FR, 0
 1555, -1612, 4279, IN, NL, LR, FR, 0
 1900, -1065, 4279, NA, NL, LR, FR, 0
 2425, -1541, 4667, NA, NL, LR, FR, 0
 1921, -1337, 4291, NA, NL, LR, FR, 0
 1921, -1543, 3328, NA, NL, LR, FR, 0
 2210, -1543, 3328, IN, NL, PU, FR, 0
 1782, -2445, 3293, NA, NL, PU, FR, 0
 1832, -2295, 1651, IN, NL, PU, BA, 0
 2076, -2103, -325, NA, NL, PU, BA, 0
 2076, -2103, -1323, IN, NL, LR, BA, 0
 1830, -1996, -1323, NA, NL, LR, BA, 0
 1762, -1490, -2529, NA, NL, LR, BA, 0
 2544, -623, -3271, NA, NL, LR, BA, 0
 2864, 353, -3526, NA, NL, LR, BA, 0
 2864, 353, -2985, NA, NL, LR, BA, 0
 3429, 337, -2985, NA, NL, LR, BA, 0
 3577, 908, -2996, NA, NL, LR, BA, 0
 3982, 293, -3179, NA, NL, LR, BA, 0
 3982, -131, -2951, NA, NL, LR, BA, 0
 5280, -131, -2951, NA, NL, LR, BA, 0
 3447, -121, -2817, NA, NL, LR, BA, 0
 1957, -1345, -2289, NA, NL, LR, BA, 0
 1989, -2774, -1530, NA, NL, PU, BA, 0
 1989, -2774, -563, NA, NL, PU, BA, 0
 1406, -3087, -563, IN, NL, PU, FR, 0
 1182, -3281, 1006, NA, NL, PU, FR, 0
 1263, -2631, 2107, NA, NL, PU, FR, 0
 1263, -2206, 3176, NA, NL, PU, FR, 0
 1766, -2206, 3315, IN, NL, LR, FR, 0
 2231, -1840, 3315, NA, NL, LR, FR, 0
 3519, -2464, 3046, NA, NL, LR, FR, 0
 3538, -2312, 1473, NA, NL, LR, FR, 0
 3538, -2445, -11, NA, NL, LR, FR, 0
 3358, -2445, -11, IN, NL, LR, BA, 0
 2487, -2445, -1005, IN, NL, PU, BA, 0
 1770, -2376, -2509, NA, NL, PU, BA, 0
 979, -2492, -2934, NA, NL, PU, BA, 0
 979, -2492, -2933, NA, NL, PU, BA, 0
 858, -2604, -2933, NA, NL, PU, BA, 0
 65, -2374, -3063, NA, NL, PU, BA, 0
 416, -2127, -3649, NA, NL, PU, BA, 0
 416, -1508, -3668, NA, NL, PU, BA, 0
 -526, -1508, -3668, NA, NL, PU, BA, 0
 -355, -1490, -3792, NA, NL, PU, BA, 0
 -369, -1103, -3988, IN, ZL, PU, BA, 0
 -441, -657, -4015, NA, ZL, PU, BA, 0
 -441, 330, -4354, NA, ZL, PU, BA, 0
 12, 330, -4354, IN, NL, PD, BA, 0
 414, 968, -4102, IN, NL, LR, BA, 0
 1670, 897, -3921, NA, NL, LR, BA, 0
 2500, 1640, -3417, NA, NL, LR, BA, 0
 2500, 1640, -2816, NA, NL, LR, BA, 0
 3257, 1130, -2816, NA, NL, LR, BA, 0
 2943, 1028, -1930, NA, NL, LR, BA, 0
 3595, 1127, -937, NA, NL, LR, BA, 0
 3595, 447, -834, NA, NL, LR, BA, 0
 3632, 447, -834, IN, NL, LR, FR, 0
 4167, 485, 370, NA, NL, LR, FR, 0
 4135, 170, 1130, NA, NL, LR, FR, 0
 3836, 435, 1375, NA, NL, LR, FR, 0
 3836, -370, 1510, NA, NL, LR, FR, 0
 4017, -370, 1510, NA, NL, LR, FR, 0
 3345, -504, 1965, NA, NL, LR, FR, 0
 2921, -820, 2336, NA, NL, LR, FR, 0
 3301, -1042, 2503, NA, NL, LR, FR, 0
 3301, -1042, 2918, NA, NL, LR, FR, 0
 3069, -1086, 2918, NA, NL, LR, FR, 0
 3202, -1391, 2972, NA, NL, LR, FR, 0
 2492, -1594, 3199, NA, NL, LR, FR, 0
 2492, -2069, 2797, NA, NL, LR, FR, 0
 2191, -2069, 2797, IN, NL, PU, FR, 0
 1756, -2595, 2700, NA, NL, PU, FR, 0
 1010, -2692, 2732, NA, NL, PU, FR, 0
 470, -3284, 2785, NA, NL, PU, FR, 0
 470, -3205, 2850, NA, NL, PU, FR, 0
 459, -3205, 2850, NA, NL, PU, FR, 0
 -69, -2937, 2835, NA, NL, PU, FR, 0
 -149, -2478, 2657, NA, NL, PU, FR, 0
 -929, -2452, 3197, NA, NL, PU, FR, 0
 -929, -2452, 3036, NA, NL, PU, FR, 0
 -695, -1880, 3036, NA, NL, PU, FR, 0
 -1283, -2023, 3544, NA, NL, PU, FR, 0
 -1245, -1717, 3791, NA, NL, PU, FR, 0
 -1245, -888, 4012, IN, NL, LL, FR, 0
 -1255, -888, 4297, NA, NL, LL, FR, 0
 -1193, -1021, 4297, IN, NL, LL, FR, 0
 -1084, -765, 3864, NA, NL, LL, FR, 0
 -1511, -1190, 4048, NA, NL, LL, FR, 0
 -1511, -1142, 3733, NA, NL, LL, FR, 0
 -1681, -1142, 3733, NA, NL, LL, FR, 0
 -1780, -1293, 3466, NA, NL, LL, FR, 0
 -2421, -2041, 3306, NA, NL, LL, FR, 0
 -2464, -2256, 2533, NA, NL, LL, FR, 0
 -2464, -2256, 1543, NA, NL, LL, FR, 0
 -2274, -2228, 1543, NA, NL, LL, FR, 0
 -2759, -2601, 653, NA, NL, LL, FR, 0
 -2871, -2633, -448, IN, NL, LL, BA, 0
 -2741, -2440, -1343, NA, NL, LL, BA, 0
 -2741, -2440, -1584, NA, NL, LL, BA, 0
 -2937, -2079, -1584, NA, NL, LL, BA, 0
 -3058, -1820, -1741, NA, NL, LL, BA, 0
 -2950, -1335, -2194, NA, NL, LL, BA, 0
 -2950, -1592, -2726, NA, NL, LL, BA, 0
 -3118, -1592, -2726, NA, NL, LL, BA, 0
 -2864, -1406, -2948, NA, NL, LL, BA, 0
 -2823, -1324, -2718, NA, NL, LL, BA, 0
 -2728, -1446, -2975, NA, NL, LL, BA, 0
 -2728, -1446, -3339, NA, NL, LL, BA, 0
 -1908, -899, -3339, NA, NL, LL, BA, 0
 -1524, -1115, -3273, IN, ZL, PU, BA, 0
 -437, -1182, -4396, IN, NL, PU, BA, 0
 202, -867, -4373, IN, NL, PU, BA, 0
 202, -867, -4298, NA, NL, PU, BA, 0
 660, -1117, -4298, NA, NL, PU, BA, 0
 711, -1257, -3492, IN, NL, LR, BA, 0
 1780, -1218, -3411, NA, NL, LR, BA, 0
 1780, -1846, -3145, NA, NL, LR, BA, 0
 3373, -1846, -3145, NA, NL, LR, BA, 0
 2648, -1718, -2009, NA, NL, LR, BA, 0
 3471, -1699, -380, IN, NL, LR, FR, 0
 3247, -1862, 1204, NA, NL, LR, FR, 0
 3247, -1434, 2345, NA, NL, LR, FR, 0
 2314, -1434, 2345, NA, NL, LR, FR, 0
 2117, -1316, 3374, NA, NL, LR, FR, 0
 1587, -1605, 4457, NA, NL, LR, FR, 0
 962, -1422, 4323, IN, NL, PU, FR, 0
 962, -1422, 3921, NA, NL, PU, FR, 0
 46, -1630, 3921, NA, ZL, PU, FR, 0
 -695, -1481, 3715, IN, NL, PU, FR, 0
 -1378, -1997, 3393, NA, NL, PU, FR, 0
 -1378, -2004, 2971, NA, NL, PU, FR, 0
 -2014, -2004, 2971, NA, NL, PU, FR, 0
 -2779, -2135, 2246, NA, NL, PU, FR, 0
 -2775, -2530, 1082, NA, NL, PU, FR, 0
 -2905, -3075, 222, IN, NL, PU, BA, 0
 -2905, -2607, -1429, NA, NL, PU, BA, 0
 -2147, -2607, -1429, NA, NL, PU, BA, 0
 -1822, -1959, -2736, NA, NL, PU, BA, 0
 -1519, -1518, -3594, NA, NL, PU, BA, 0
 -782, -1244, -3869, NA, NL, PU, BA, 0
 -782, -1244, -4270, NA, ZL, PU, BA, 0
 227, -1400, -4270, IN, NL, LR, BA, 0
 1580, -931, -4037, IN, NL, LR, BA, 0
 1869, -1432, -3739, NA, NL, LR, BA, 0
 1869, -1112, -2975, NA, NL, LR, BA, 0
 2756, -1112, -2975, NA, NL, LR, BA, 0
 3734, -903, -2289, NA, NL, LR, BA, 0
 3802, -958, -930, NA, NL, LR, BA, 0
 3822, -1510, 138, IN, NL, LR, FR, 0
 3822, -1814, 1485, NA, NL, LR, FR, 0
 3195, -1814, 1485, NA, NL, LR, FR, 0
 2350, -2029, 2172, IN, NL, PU, FR, 0
 926, -2118, 3532, NA, NL, PU, FR, 0
 -4, -1975, 3627, NA, NL, PU, FR, 0
 -4, -1975, 3670, NA, NL, PU, FR, 0
 -963, -2331, 3670, NA, NL, PU, FR, 0
 -1806, -2624, 2912, NA, NL, PU, FR, 0
 -2207, -2620, 1941, NA, NL, PU, FR, 0
 -2207, -2511, 1150, NA, NL, PU, FR, 0
 -2763, -2511, 1150, NA, NL, PU, FR, 0
 -2965, -3041, 323, IN, NL, PU, BA, 0
 -2455, -2953, -773, NA, NL, PU, BA, 0
 -1952, -2259, -2364, NA, NL, PU, BA, 0
 -1952, -3283, -2183, NA, NL, PU, BA, 0
 -945, -3283, -2183, NA, NL, PU, BA, 0
 1013, -3233, -2910, NA, NL, PU, BA, 0
 1993, -2761, -2934, NA, NL, PU, BA, 0
 2979, -2152, -2395, NA, NL, PU, BA, 0
 2979, -2152, -1243, IN, NL, LR, BA, 0
 3311, -2582, -1243, NA, NL, LR, FR, 0
 3249, -2342, -314, NA, NL, LR, FR, 0
 3156, -2756, 927, NA, NL, LR, FR, 0
 3156, -2545, 1733, NA, NL, LR, FR, 0
 2984, -2545, 1733, NA, NL, LR, FR, 0
 1778, -2425, 2778, IN, NL, PU, FR, 0
 685, -2386, 2602, NA, NL, PU, FR, 0
 -387, -2797, 2348, NA, NL, PU, FR, 0
 -387, -3002, 2498, NA, NL, PU, FR, 0
 -1380, -3002, 2498, NA, NL, PU, FR, 0
 -2122, -2790, 2174, IN, NL, LL, FR, 0
 -2582, -2652, 2058, IN, NL, PU, FR, 0
 -2336, -2801, 1480, NA, NL, PU, FR, 0
 -2336, -2801, 1505, NA, NL, PU, FR, 0
 -3113, -2802, 1505, NA, NL, PU, FR, 0
 -2109, -3093, 1655, NA, NL, PU, FR, 0
 -1609, -2895, 2312, NA, NL, PU, FR, 0
 -1609, -3383, 2852, NA, NL, PU, FR, 0
 -921, -3383, 3121, NA, NL, PU, FR, 0
 -368, -2935, 3121, NA, NL, PU, FR, 0
 661, -2738, 2696, NA, NL, PU, FR, 0
 1673, -3039, 2329, NA, NL, PU, FR, 0
 1673, -3131, 2575, NA, NL, PU, FR, 0
 2017, -3131, 2575, NA, NL, PU, FR, 0
 2365, -3279, 2986, NA, NL, PU, FR, 0
 2355, -3230, 2210, IN, NL, LR, FR, 0
 2031, -2332, 1327, IN, NL, PU, FR, 0
 2031, -2332, 217, NA, NL, PU, FR, 0
 1365, -2645, 217, IN, NL, PU, BA, 0
 1838, -2944, -884, NA, NL, PU, BA, 0
 1594, -3093, -1637, NA, NL, PU, BA, 0
 1615, -3179, -2381, NA, NL, PU, BA, 0
 1615, -3179, -2978, NA, NL, PU, BA, 0
 1509, -2263, -2978, NA, NL, LR, BA, 0
 1888, -1731, -3261, NA, NL, LR, BA, 0
 1470, -613, -3708, NA, NL, LR, BA, 0
 1470, -56, -3891, NA, NL, LR, BA, 0
 1653, -56, -3891, NA, NL, LR, BA, 0
 2093, 505, -3751, NA, NL, LR, BA, 0
 2617, 586, -4149, NA, NL, LR, BA, 0
 2362, 347, -3652, NA, NL, LR, BA, 0
 2362, 347, -3993, NA, NL, LR, BA, 0
 2509, 441, -3993, NA, NL, LR, BA, 0
 2695, 358, -4211, NA, NL, LR, BA, 0
 2264, -169, -4115, NA, NL, LR, BA, 0
 2264, -1320, -3168, NA, NL, LR, BA, 0
 1897, -1320, -3168, NA, NL, LR, BA, 0
 2078, -1801, -2494, IN, NL, PU, BA, 0
 1432, -2106, -612, IN, NL, PU, FR, 0
 900, -3084, 1116, NA, NL, PU, FR, 0
 900, -2712, 2198, NA, NL, PU, FR, 0
 763, -2712, 2198, NA, NL, PU, FR, 0
 -121, -1537, 3300, NA, NL, PU, FR, 0
 -14, -1986, 4751, NA, NL, PU, FR, 0
 -257, -1050, 4084, IN, ZL, PU, FR, 0
 -257, -1050, 4317, NA, ZL, PU, FR, 0
 -561, -349, 4317, NA, ZL, PU, FR, 0
 -226, -347, 4923, NA, ZL, PU, FR, 0
 -53, -25, 4920, NA, ZL, PU, FR, 0
 -53, 238, 5088, NA, ZL, PU, FR, 0
 123, 238, 5088, NA, ZL, PU, FR, 0
 17, -20, 5623, NA, ZL, PU, FR, 0
 -395, -226, 4950, IN, NL, PU, FR, 0
 -110, -1214, 4016, NA, NL, PU, FR, 0
 -110, -1214, 3141, NA, NL, PU, FR, 0
 139, -1985, 3141, NA, NL, PU, FR, 0
 -124, -2598, 1714, NA, NL, PU, FR, 0
 196, -3126, 458, NA, NL, PU, FR, 0
 196, -3210, -606, IN, NL, PU, BA, 0
 549, -3210, -606, NA, NL, PU, BA, 0
 1141, -2507, -2183, NA, NL, PU, BA, 0
 1154, -1787, -2956, NA, NL, PU, BA, 0
 1783, -1183, -3644, IN, NL, LR, BA, 0
 1783, -837, -4204, NA, NL, LR, BA, 0
 1844, -837, -4204, NA, NL, LR, BA, 0
 1858, -845, -4115, NA, NL, LR, BA, 0
 2174, 75, -3675, NA, NL, LR, BA, 0
 2597, 847, -3715, NA, NL, LR, BA, 0
 2597, 847, -4007, NA, NL, LR, BA, 0
 2672, 792, -4007, NA, NL, LR, BA, 0
 2825, 642, -4288, NA, NL, LR, BA, 0
 2989, 590, -4269, NA, NL, LR, BA, 0
 2989, -380, -3711, NA, NL, LR, BA, 0
 2575, -380, -3711, NA, NL, LR, BA, 0
 2103, -1016, -2812, NA, NL, LR, BA, 0
 1906, -1671, -1577, IN, NL, PU, BA, 0
 954, -2200, 451, IN, NL, PU, FR, 0
 954, -2493, 2384, NA, NL, PU, FR, 0
 277, -2493, 2384, NA, NL, PU, FR, 0
 49, -2283, 3330, NA, NL, PU, FR, 0
 -168, -1713, 4381, IN, ZL, PU, FR, 0
 -169, -845, 4547, IN, NL, PU, FR, 0
 -169, -845, 4712, IN, ZL, PU, FR, 0
 -155, -757, 4712, NA, ZL, PU, FR, 0
 -273, -244, 4582, NA, ZL, PU, FR, 0
 -247, -153, 4419, NA, ZL, PU, FR, 0
 -247, 91, 4679, NA, ZL, PU, FR, 0
 -602, 91, 4679, NA, ZL, PU, FR, 0
 -795, -49, 5328, NA, ZL, PU, FR, 0
 -669, -619, 5011, IN, NL, PU, FR, 0
 -716, -855, 3508, NA, NL, PU, FR, 0
 -716, -855, 3201, NA, NL, PU, FR, 0
 -1065, -2184, 3201, NA, NL, PU, FR, 0
 -843, -2999, 1886, NA, NL, PU, FR, 0
 -286, -3309, 636, NA, NL, PU, FR, 0
 -286, -3331, -192, IN, NL, PU, BA, 0
 213, -3331, -1258, NA, NL, PU, BA, 0
 711, -3646, -1258, NA, NL, PU, BA, 0
 1203, -2958, -1154, NA, NL, PU, BA, 0
 2349, -2479, -1947, NA, NL, PU, BA, 0
 2349, -2927, -1371, NA, NL, PU, BA, 0
 3117, -2927, -1371, NA, NL, PU, BA, 0
 3135, -2766, -84, IN, NL, PU, FR, 0
 2688, -2787, 1436, NA, NL, PU, FR, 0
 2411, -2034, 2207, NA, NL, PU, FR, 0
 2411, -2034, 3441, NA, NL, PU, FR, 0
 2158, -1628, 3441, NA, NL, PU, FR, 0
 1239, -1324, 4097, NA, NL, PU, FR, 0
 928, -898, 3958, IN, ZL, PU, FR, 0
 928, -671, 4315, IN, NL, PU, FR, 0
 435, -671, 4488, IN, ZL, PU, FR, 0
 487, -691, 4488, IN, ZL, PU, FR, 0
 698, -536, 4237, IN, NL, PU, FR, 0
 607, -1023, 5169, NA, ZL, PU, FR, 0
 607, -1155, 5358, NA, ZL, PU, FR, 0
 814, -1155, 5358, IN, NL, PU, FR, 0
 657, -779, 4755, NA, NL, PU, FR, 0
 351, -1565, 3772, NA, NL, PU, FR, 0
 362, -2244, 2449, NA, NL, PU, FR, 0
 362, -2244, 966, NA, NL, PU, FR, 0
 373, -2998, 966, NA, NL, PU, BA, 0
 428, -3331, 21, NA, NL, PU, BA, 0
 632, -2882, -1273, NA, NL, PU, BA, 0
 236, -2818, -1935, NA, NL, PU, BA, 0
 236, -2818, -2629, NA, NL, PU, BA, 0
 -371, -3371, -2629, NA, NL, PU, BA, 0
 -840, -3162, -3147, NA, NL, PU, BA, 0
 -553, -3198, -3619, NA, NL, PU, BA, 0
 -553, -2130, -3656, NA, NL, PU, BA, 0
 -163, -2130, -3656, IN, ZL, PU, BA, 0
 -52, -1766, -3791, IN, NL, PU, BA, 0
 165, -2026, -4435, NA, NL, PU, BA, 0
 664, -1284, -4631, NA, NL, PU, BA, 0
 664, -1284, -4359, NA, NL, PU, BA, 0
 590, -1463, -4359, NA, NL, PU, BA, 0
 41, -2472, -3221, NA, NL, PU, BA, 0
 155, -2805, -2345, NA, NL, PU, BA, 0
 155, -3158, -1128, NA, NL, PU, BA, 0
 311, -3158, 791, IN, NL, PU, FR, 0
 399, -3700, 791, NA, NL, PU, FR, 0
 128, -2746, 999, NA, NL, PU, FR, 0
 487, -2365, 2532, NA, NL, PU, FR, 0
 487, -1488, 3832, IN, NL, PU, FR, 0
 -153, -1488, 3832, NA, NL, PU, FR, 0
 -107, -1081, 5070, IN, ZL, PU, FR, 0
 50, -778, 5086, NA, ZL, PU, FR, 0
 259, -580, 4385, NA, ZL, PU, FR, 0
 259, -580, 4464, NA, ZL, PU, FR, 0
 339, -344, 4464, NA, ZL, PU, FR, 0
 753, -419, 5050, IN, ZL, PU, FR, 0
 712, -589, 4956, IN, NL, PU, FR, 0
 712, -1168, 4612, NA, NL, PU, FR, 0
 548, -1168, 3303, NA, NL, PU, FR, 0
 561, -1805, 3303, NA, NL, PU, FR, 0
 775, -2689, 2049, NA, NL, PU, FR, 0
 525, -3107, 1032, NA, NL, PU, FR, 0
 525, -3082, -344, IN, NL, PU, BA, 0
 180, -3082, -344, NA, NL, PU, BA, 0
 836, -3155, -1824, NA, NL, PU, BA, 0
 575, -2858, -2682, NA, NL, PU, BA, 0
 606, -1768, -3589, NA, NL, PU, BA, 0
 606, -1768, -4452, NA, NL, PU, BA, 0
 802, -1283, -4452, NA, NL, PU, BA, 0
 860, -1119, -5000, IN, ZL, PU, BA, 0
 450, -924, -4413, IN, NL, PU, BA, 0
 597, -1031, -4410, NA, NL, PU, BA, 0
 597, -1031, -4715, NA, NL, PU, BA, 0
 882, -1408, -4715, NA, NL, PU, BA, 0
 751, -2132, -3842, NA, NL, PU, BA, 0
 570, -2401, -2387, NA, NL, PU, BA, 0
 570, -2693, -332, IN, NL, PU, FR, 0
 807, -2693, -332, NA, NL, PU, FR, 0
 591, -2509, 1932, NA, NL, PU, FR, 0
 596, -2061, 3394, NA, NL, PU, FR, 0
 1011, -1908, 4288, NA, NL, PU, FR, 0
 1011, -1908, 4075, IN, NL, LR, FR, 0
 680, -794, 4075, NA, NL, LR, FR, 0
 923, -619, 4289, IN, ZL, LR, FR, 0
 1001, -129, 4496, IN, NL, LR, FR, 0
 664, 467, 4310, IN, ZL, LR, FR, 0
 664, 467, 4573, IN, NL, LR, FR, 0
 713, 634, 4573, NA, NL, LR, FR, 0
 964, 593, 4713, NA, NL, LR, FR, 0
 986, 329, 5342, NA, NL, LR, FR, 0
 986, 42, 5518, IN, ZL, LR, FR, 0
 919, 42, 5518, IN, NL, LR, FR, 0
 725, -510, 4193, IN, NL, PU, FR, 0
 231, -1491, 3323, NA, NL, PU, FR, 0
 181, -2466, 2314, NA, NL, PU, FR, 0
 181, -2466, 843, NA, NL, PU, FR, 0
 -106, -2801, 843, IN, NL, PU, BA, 0
 18, -3241, -465, NA, NL, PU, BA, 0
 -86, -3356, -1452, NA, NL, PU, BA, 0
 -86, -3022, -2292, NA, NL, PU, BA, 0
 -171, -3022, -2292, NA, NL, PU, BA, 0
 -61, -2649, -3191, NA, NL, PU, BA, 0
 -157, -2597, -3586, NA, NL, PU, BA, 0
 -202, -1599, -3773, NA, NL, PU, BA, 0
 -202, -1584, -4698, IN, ZL, PU, BA, 0
 970, -1584, -4698, IN, NL, PU, BA, 0
 879, -1121, -4095, NA, NL, PU, BA, 0
 751, -1157, -3947, NA, NL, PU, BA, 0
 1250, -987, -4472, IN, NL, LR, BA, 0
 1250, -987, -4809, NA, NL, LR, BA, 0
 1559, -635, -4809, NA, NL, LR, BA, 0
 1368, -1186, -4673, IN, NL, PU, BA, 0
 860, -1968, -3542, NA, NL, PU, BA, 0
 860, -2396, -2254, NA, NL, PU, BA, 0
 677, -2396, -2254, NA, NL, PU, BA, 0
 440, -2834, -395, IN, NL, PU, FR, 0
 -176, -2217, 1646, NA, NL, PU, FR, 0
 1, -2051, 3256, NA, NL, PU, FR, 0
 1, -1467, 4045, NA, NL, PU, FR, 0
 226, -1467, 4045, IN, ZL, PU, FR, 0
 244, -587, 4909, NA, ZL, PU, FR, 0
 540, -25, 4456, NA, ZL, PU, FR, 0
 657, 152, 4567, NA, ZL, PU, FR, 0
 657, 152, 4435, NA, ZL, PU, FR, 0
 675, 394, 4435, IN, NL, PD, FR, 0
 644, 734, 4777, NA, NL, PD, FR, 0
 528, 907, 5008, NA, ZL, PD, FR, 0
 528, 668, 4824, NA, ZL, PD, FR, 0
 435, 668, 4824, NA, ZL, PD, FR, 0
 283, 133, 4811, NA, ZL, PD, FR, 0
 -24, -639, 4598, IN, NL, PU, FR, 0
 0, -1855, 3281, NA, NL, PU, FR, 0
 0, -1855, 2411, NA, NL, PU, FR, 0
 -189, -2393, 2411, NA, NL, PU, FR, 0
 -345, -3150, 1437, NA, NL, PU, FR, 0
 -299, -3315, 76, IN, NL, PU, BA, 0
 -299, -3142, -970, NA, NL, PU, BA, 0
 157, -3142, -970, NA, NL, PU, BA, 0
 1043, -2231, -2508, NA, NL, PU, BA, 0
 1269, -1812, -3556, NA, NL, PU, BA, 0
 1565, -1377, -4071, NA, NL, PU, BA, 0
 1565, -1759, -3875, NA, NL, PU, BA, 0
 1503, -1759, -3875, IN, NL, LR, BA, 0
 1586, -1266, -3963, NA, NL, LR, BA, 0
 1768, -914, -4153, NA, NL, LR, BA, 0
 1715, -702, -4231, NA, NL, LR, BA, 0
 1715, -702, -4334, NA, NL, LR, BA, 0
 1665, -717, -4334, NA, NL, LR, BA, 0
 1518, -887, -4190, NA, NL, LR, BA, 0
 1659, -1289, -4111, NA, NL, LR, BA, 0
 1659, -1981, -3266, IN, NL, PU, BA, 0
 1461, -1981, -3266, NA, NL, PU, BA, 0
 1166, -2315, -2217, NA, NL, PU, BA, 0
 1513, -2359, -1333, NA, NL, PU, BA, 0
 2784, -2682, -1095, NA, NL, PU, BA, 0
 2784, -2550, -346, NA, NL, PU, BA, 0
 2851, -2550, -346, IN, NL, LR, FR, 0
 2915, -1920, 592, NA, NL, LR, FR, 0
 2733, -2193, 2402, NA, NL, LR, FR, 0
 2636, -1546, 3254, NA, NL, LR, FR, 0
 2636, -1546, 3733, NA, NL, LR, FR, 0
 2987, -960, 3733, NA, NL, LR, FR, 0
 2224, -136, 3780, NA, NL, LR, FR, 0
 1639, -250, 4337, NA, NL, LR, FR, 0
 1639, -478, 4247, IN, NL, PU, FR, 0
 848, -478, 4247, IN, ZL, PU, FR, 0
 395, -775, 4112, IN, NL, PU, FR, 0
 -707, -807, 3912, NA, NL, PU, FR, 0
 -1328, -1687, 3671, NA, NL, PU, FR, 0
 -1328, -2617, 2910, NA, NL, PU, FR, 0
 -1830, -2617, 2910, NA, NL, PU, FR, 0
 -2127, -3460, 1650, NA, NL, PU, FR, 0
 -1831, -3343, 362, NA, NL, PU, FR, 0
 -1695, -3228, -723, IN, NL, PU, BA, 0
 -1695, -3228, -1977, NA, NL, PU, BA, 0
 -1207, -2758, -1977, NA, NL, PU, BA, 0
 -23, -2446, -2312, NA, NL, PU, BA, 0
 1192, -2416, -3258, NA, NL, PU, BA, 0
 1192, -2807, -2440, NA, NL, PU, BA, 0
 2236, -2807, -2316, IN, NL, LR, BA, 0
 3162, -2399, -2316, NA, NL, LR, BA, 0
 2978, -3361, -594, NA, NL, PU, BA, 0
 2345, -2887, 145, IN, NL, PU, FR, 0
 2345, -3352, 1201, NA, NL, PU, FR, 0
 1967, -3352, 1201, NA, NL, PU, FR, 0
 1306, -3457, 2111, NA, NL, PU, FR, 0
 1050, -3287, 2646, NA, NL, PU, FR, 0
 -956, -2775, 2524, NA, NL, PU, FR, 0
 -956, -2775, 2714, NA, NL, PU, FR, 0
 -1076, -2830, 2714, NA, NL, PU, FR, 0
 -1594, -2592, 2550, NA, NL, PU, FR, 0
 -1576, -2678, 3116, NA, NL, PU, FR, 0
 -1576, -2837, 2923, NA, NL, PU, FR, 0
 -2267, -2837, 1864, NA, NL, PU, FR, 0
 -2554, -2447, 1864, NA, NL, PU, FR, 0
 -2206, -2872, 1517, NA, NL, PU, FR, 0
 -2540, -2800, 1149, NA, NL, PU, FR, 0
 -2540, -2934, 465, NA, NL, PU, FR, 0
 -2474, -2934, 465, IN, NL, PU, BA, 0
 -2325, -3108, -318, NA, NL, PU, BA, 0
 -2055, -2871, -1459, NA, NL, PU, BA, 0
 -1979, -2844, -2177, NA, NL, PU, BA, 0
 -1979, -2844, -2758, NA, NL, PU, BA, 0
 -1217, -2923, -2758, NA, NL, PU, BA, 0
 -797, -2377, -3124, NA, NL, PU, BA, 0
 -156, -1829, -3388, NA, NL, PU, BA, 0
 722, -1341, -3577, IN, NL, LR, BA, 0
 722, -1341, -3848, NA, NL, LR, BA, 0
 1905, -891, -3848, NA, NL, LR, BA, 0
 2690, -739, -3923, NA, NL, LR, BA, 0
 2446, -566, -3379, NA, NL, LR, BA, 0
 2446, -431, -2880, NA, NL, LR, BA, 0
 2658, -431, -2880, NA, NL, LR, BA, 0
 3160, -302, -2543, NA, NL, LR, BA, 0
 3820, -636, -2093, NA, NL, LR, BA, 0
 3885, -383, -2027, NA, NL, LR, BA, 0
 3885, -383, -2125, NA, NL, LR, BA, 0
 3719, -460, -2125, NA, NL, LR, BA, 0
 3563, -787, -1626, NA, NL, LR, BA, 0
 3922, -986, -1343, NA, NL, LR, BA, 0
 3739, -1479, -721, NA, NL, LR, BA, 0
 3739, -1479, 160, IN, NL, LR, FR, 0
 3317, -2261, 160, NA, NL, LR, FR, 0
 2961, -2264, 698, NA, NL, LR, FR, 0
 2088, -2140, 2080, IN, NL, PU, FR, 0
 2088, -2281, 2924, NA, NL, PU, FR, 0
 1002, -2281, 2924, NA, NL, PU, FR, 0
 163, -2407, 3563, NA, NL, PU, FR, 0
 -12, -2070, 3591, NA, NL, PU, FR, 0
 -1031, -1960, 4008, NA, NL, PU, FR, 0
 -1031, -1960, 3702, NA, NL, PU, FR, 0
 -1605, -2045, 3702, NA, NL, PU, FR, 0
 -1722, -2453, 2733, NA, NL, PU, FR, 0
 -2523, -3004, 2260, NA, NL, PU, FR, 0
 -2659, -2844, 1020, NA, NL, PU, FR, 0
 -2659, -2844, 219, NA, NL, PU, FR, 0
 -2403, -3454, 219, IN, NL, PU, BA, 0
 -1683, -3198, -1083, NA, NL, PU, BA, 0
 -451, -3197, -2016, NA, NL, PU, BA, 0
 -451, -2835, -2295, NA, NL, PU, BA, 0
 1023, -2835, -2295, NA, NL, PU, BA, 0
 2251, -2276, -2766, IN, NL, LR, BA, 0
 2741, -1565, -2524, NA, NL, LR, BA, 0
 3356, -1021, -2578, NA, NL, LR, BA, 0
 3356, -1021, -2326, NA, NL, LR, BA, 0
 4047, -643, -2326, NA, NL, LR, BA, 0
 3770, -754, -2164, NA, NL, LR, BA, 0
 3720, -973, -1455, NA, NL, LR, BA, 0
 3584, -1710, -580, NA, NL, LR, BA, 0
 3584, -1710, 230, NA, NL, LR, BA, 0
 3603, -2161, 230, IN, NL, LR, FR, 0
 2993, -2286, 899, NA, NL, LR, FR, 0
 2535, -2129, 1654, NA, NL, LR, FR, 0
 2535, -2058, 2520, NA, NL, LR, FR, 0
 2245, -2058, 2520, NA, NL, LR, FR, 0
 2103, -1790, 2967, NA, NL, LR, FR, 0
 1505, -1465, 3749, NA, NL, LR, FR, 0
 1100, -1293, 4026, NA, NL, LR, FR, 0
 1100, -1293, 4366, IN, NL, PU, FR, 0
 706, -1297, 4366, NA, NL, PU, FR, 0
 348, -1696, 4468, NA, NL, PU, FR, 0
 -487, -1706, 3627, NA, NL, PU, FR, 0
 -934, -2179, 3261, NA, NL, PU, FR, 0
 -934, -2179, 2578, NA, NL, PU, FR, 0
 -1442, -2785, 2578, NA, NL, PU, FR, 0
 -1812, -3096, 1726, NA, NL, PU, FR, 0
 -1937, -3158, 762, NA, NL, PU, FR, 0
 -1937, -3567, 44, NA, NL, PU, FR, 0
 -1830, -3567, 44, IN, NL, PU, BA, 0
 -1287, -3606, -1136, NA, NL, PU, BA, 0
 -1085, -3049, -2019, NA, NL, PU, BA, 0
 304, -2411, -2706, NA, NL, PU, BA, 0
 304, -2411, -2865, NA, NL, LR, BA, 0
 1755, -1902, -2865, NA, NL, LR, BA, 0
 3246, -840, -3040, NA, NL, LR, BA, 0
 3965, 13, -2735, NA, NL, LR, BA, 0
 4099, -10, -2438, NA, NL, LR, BA, 0
 4099, -10, -2438, NA, NL, LR, BA, 0
 3430, -171, -2413, NA, NL, LR, BA, 0
 3675, 2, -2574, NA, NL, LR, BA, 0
 3833, -311, -2873, NA, NL, LR, BA, 0
 3833, -1350, -2544, NA, NL, LR, BA, 0
 2773, -1350, -2544, NA, NL, LR, BA, 0
 2037, -1940, -2070, NA, NL, LR, BA, 0
 1847, -2418, -1707, IN, NL, PU, BA, 0
 1648, -2673, -307, NA, NL, PU, BA, 0
 1648, -2673, 969, IN, NL, PU, FR, 0
 2008, -2872, 969, NA, NL, PU, FR, 0
 2097, -2560, 2473, NA, NL, PU, FR, 0
 2181, -1998, 3071, NA, NL, PU, FR, 0
 2181, -1487, 3497, IN, NL, LR, FR, 0
 2362, -1487, 3497, NA, NL, LR, FR, 0
 2601, -1158, 3774, NA, NL, LR, FR, 0
 2656, -946, 3756, NA, NL, LR, FR, 0
 2413, -801, 3843, NA, NL, LR, FR, 0
 2413, -1039, 4006, NA, NL, LR, FR, 0
 2518, -1039, 4006, NA, NL, LR, FR, 0
 2212, -1326, 3956, NA, NL, LR, FR, 0
 2128, -1919, 3198, IN, NL, PU, FR, 0
 1301, -2322, 2366, NA, NL, PU, FR, 0
 1301, -2322, 1142, NA, NL, PU, FR, 0
 1452, -2940, 1142, NA, NL, PU, BA, 0
 989, -2927, -163, NA, NL, PU, BA, 0
 1294, -2534, -1934, NA, NL, PU, BA, 0
 1294, -1814, -2984, NA, NL, PU, BA, 0
 2040, -1814, -2984, IN, NL, LR, BA, 0
 2396, -938, -3582, NA, NL, LR, BA, 0
 2828, -1098, -3749, NA, NL, LR, BA, 0
 2954, -996, -3858, NA, NL, LR, BA, 0
 2954, -890, -3348, NA, NL, LR, BA, 0
 2601, -890, -3348, NA, NL, LR, BA, 0
 2181, -1017, -3050, NA, NL, LR, BA, 0
 2153, -488, -3366, NA, NL, LR, BA, 0
 2475, -465, -3405, NA, NL, LR, BA, 0
 2475, -465, -3482, NA, NL, LR, BA, 0
 2514, -799, -3482, NA, NL, LR, BA, 0
 2342, -742, -3787, NA, NL, LR, BA, 0
 2599, -774, -3868, NA, NL, LR, BA, 0
 2599, -1215, -3448, NA, NL, LR, BA, 0
 2402, -1215, -2301, NA, NL, LR, BA, 0
 2118, -2040, -2301, NA, NL, LR, BA, 0
 1630, -2457, -447, IN, NL, PU, FR, 0
 977, -2173, 1415, NA, NL, PU, FR, 0
 977, -1821, 3341, NA, NL, PU, FR, 0
 633, -1821, 3341, NA, NL, PU, FR, 0
 719, -1439, 4824, IN, ZL, PU, FR, 0
 725, -766, 4910, NA, ZL, PU, FR, 0
 933, 77, 4302, IN, NL, LR, FR, 0
 933, 77, 4218, NA, ZL, LR, FR, 0
 1269, -65, 4218, NA, NL, LR, FR, 0
 989, -11, 4873, NA, ZL, LR, FR, 0
 981, 38, 4950, IN, NL, LR, FR, 0
 981, -376, 4994, IN, ZL, LR, FR, 0
 697, -376, 4994, IN, NL, PU, FR, 0
 196, -728, 4500, NA, NL, PU, FR, 0
 357, -1759, 3485, NA, NL, PU, FR, 0
 88, -2680, 2464, NA, NL, PU, FR, 0
 88, -2680, 1394, NA, NL, PU, FR, 0
 -67, -3021, 1394, IN, NL, PU, BA, 0
 521, -3220, -553, NA, NL, PU, BA, 0
 825, -3360, -1454, NA, NL, PU, BA, 0
 825, -3419, -2115, NA, NL, PU, BA, 0
 1001, -3419, -2850, NA, NL, PU, BA, 0
 1201, -1795, -2850, IN, NL, LR, BA, 0
 1487, -351, -3630, NA, NL, LR, BA, 0
 2455, 109, -3998, NA, NL, LR, BA, 0
 2455, -20, -4028, NA, NL, LR, BA, 0
 2692, -20, -4028, NA, NL, LR, BA, 0
 2860, 375, -3506, NA, NL, LR, BA, 0
 2897, 479, -3371, NA, NL, LR, BA, 0
 2571, 240, -3033, NA, NL, LR, BA, 0
 2571, 240, -2943, NA, NL, LR, BA, 0
 2728, -36, -2943, NA, NL, LR, BA, 0
 2736, -172, -2905, NA, NL, LR, BA, 0
 2678, -203, -2833, NA, NL, LR, BA, 0
 2678, 75, -2970, NA, NL, LR, BA, 0
 2888, 75, -2970, NA, NL, LR, BA, 0
 2826, 441, -2953, NA, NL, LR, BA, 0
 2753, 704, -3161, NA, NL, LR, BA, 0
 2562, 587, -2919, NA, NL, LR, BA, 0
 2562, 587, -2775, NA, NL, LR, BA, 0
 2968, 60, -2775, NA, NL, LR, BA, 0
 3266, -132, -3041, NA, NL, LR, BA, 0
 3132, -590, -2417, NA, NL, LR, BA, 0
 3132, -303, -2318, NA, NL, LR, BA, 0
 3639, -303, -2318, NA, NL, LR, BA, 0
 3880, -1136, -2408, NA, NL, LR, BA, 0
 2933, -1350, -2255, NA, NL, LR, BA, 0
 2480, -2265, -1810, NA, NL, LR, BA, 0
 2480, -2877, -1428, NA, NL, LR, BA, 0
 2285, -2877, -1428, IN, NL, PU, FR, 0
 1763, -3498, 130, NA, NL, PU, FR, 0
 1807, -3542, 184, NA, NL, PU, FR, 0
 106, -3150, 1019, NA, NL, PU, FR, 0
 106, -3150, 1640, NA, NL, PU, FR, 0
 -1059, -3289, 1640, NA, NL, PU, FR, 0
 -2054, -3099, 1927, NA, NL, PU, FR, 0
 -2969, -2884, 1796, NA, NL, PU, FR, 0
 -2969, -3079, 758, NA, NL, PU, FR, 0
 -3554, -3079, 758, IN, NL, PU, BA, 0
 -3074, -2447, -776, NA, NL, PU, BA, 0
 -2707, -2436, -1477, NA, NL, PU, BA, 0
 -2178, -2982, -1991, NA, NL, PU, BA, 0
 -2178, -2982, -2630, NA, NL, PU, BA, 0
 -1236, -2961, -2630, NA, NL, PU, BA, 0
 -462, -2059, -2793, NA, NL, PU, BA, 0
 423, -2461, -3181, NA, NL, PU, BA, 0
 1567, -2076, -3239, NA, NL, PU, BA, 0
 1567, -2076, -3405, IN, NL, LR, BA, 0
 2044, -1503, -3405, NA, NL, LR, BA, 0
 2816, -978, -3361, NA, NL, LR, BA, 0
 2855, -768, -3165, NA, NL, LR, BA, 0
 2855, -1366, -2553, NA, NL, LR, BA, 0
 2836, -1366, -2553, NA, NL, LR, BA, 0
 3411, -849, -2432, NA, NL, LR, BA, 0
 3868, -1206, -1704, NA, NL, LR, BA, 0
 4054, -2609, -631, NA, NL, LR, BA, 0
 4054, -2475, -104, NA, NL, LR, BA, 0
 2631, -2475, -104, IN, NL, LR, FR, 0
 2518, -2168, 925, NA, NL, LR, FR, 0
 2391, -1780, 2285, NA, NL, LR, FR, 0
 1721, -1408, 3568, IN, NL, PU, FR, 0
 1721, -1408, 4561, NA, NL, PU, FR, 0
 943, -1339, 4561, NA, NL, PU, FR, 0
 210, -1305, 4424, NA, NL, PU, FR, 0
 -672, -1808, 4444, NA, NL, PU, FR, 0
 -672, -1803, 3331, NA, NL, PU, FR, 0
 -1551, -1803, 3331, NA, NL, PU, FR, 0
 -2075, -2119, 2512, NA, NL, PU, FR, 0
 -2309, -2882, 1724, NA, NL, PU, FR, 0
 -2334, -3064, 374, NA, NL, PU, FR, 0
 -2334, -3192, -434, IN, NL, PU, BA, 0
 -1558, -3192, -434, NA, NL, PU, BA, 0
 -535, -3376, -1569, NA, NL, PU, BA, 0
 322, -3186, -2345, NA, NL, PU, BA, 0
 1279, -2731, -2716, NA, NL, PU, BA, 0
 1279, -2731, -2536, IN, NL, LR, BA, 0
 2255, -1624, -2536, NA, NL, LR, BA, 0
 3352, -1244, -2711, NA, NL, LR, BA, 0
 4238, -263, -2558, NA, NL, LR, BA, 0
 4238, -90, -1614, NA, NL, LR, BA, 0
 4393, -90, -1614, NA, NL, LR, BA, 0
 4077, -1683, -296, IN, NL, LR, FR, 0
 3419, -2083, 535, NA, NL, LR, FR, 0
 3433, -1696, 1314, NA, NL, LR, FR, 0
 3433, -1136, 2062, NA, NL, LR, FR, 0
 2994, -1136, 2062, NA, NL, LR, FR, 0
 1643, -1472, 3168, IN, NL, PU, FR, 0
 1231, -1949, 3451, NA, NL, PU, FR, 0
 719, -1722, 3752, NA, NL, PU, FR, 0
 719, -1722, 3895, NA, NL, PU, FR, 0
 555, -1867, 3895, NA, NL, PU, FR, 0
 839, -1769, 4037, NA, NL, PU, FR, 0
 970, -1483, 4010, NA, NL, PU, FR, 0
 970, -1380, 3841, NA, NL, PU, FR, 0
 1494, -1380, 3841, IN, NL, LR, FR, 0
 2331, -1506, 3858, NA, NL, LR, FR, 0
 2504, -1126, 3960, NA, NL, LR, FR, 0
 2521, -1567, 3506, NA, NL, LR, FR, 0
 2521, -1883, 3008, NA, NL, LR, FR, 0
 1933, -1883, 3008, NA, NL, LR, FR, 0
 2206, -1933, 1896, NA, NL, LR, FR, 0
 2704, -1837, 649, NA, NL, LR, FR, 0
 3964, -1991, 9, NA, NL, LR, FR, 0
 3964, -1991, 608, NA, NL, LR, FR, 0
 3291, -2358, 608, NA, NL, LR, FR, 0
 3367, -2222, -52, NA, NL, LR, FR, 0
 3567, -2075, 43, IN, NL, LR, BA, 0
 3567, -1077, -895, NA, NL, LR, BA, 0
 3491, -1077, -895, NA, NL, LR, BA, 0
 3594, -1130, -1102, NA, NL, LR, BA, 0
 3936, -764, -1477, NA, NL, LR, BA, 0
 3913, -998, -1567, NA, NL, LR, BA, 0
 3913, -1269, -1756, NA, NL, LR, BA, 0
 4608, -1269, -1756, NA, NL, LR, BA, 0
 3346, -1068, -2628, NA, NL, LR, BA, 0
 2601, -2576, -2268, NA, NL, LR, BA, 0
 3058, -2748, -2347, NA, NL, LR, BA, 0
 3058, -2748, -723, IN, NL, PU, BA, 0
 1963, -3559, -723, IN, NL, PU, FR, 0
 547, -3083, 836, NA, NL, PU, FR, 0
 1569, -2447, 1940, IN, ZL, PU, FR, 0
 1569, -732, 3648, IN, NL, PU, FR, 0
 -495, -732, 4326, NA, NL, PU, FR, 0
 -946, -1317, 4326, IN, ZL, PU, FR, 0
 -23, -597, 4464, NA, ZL, PU, FR, 0
 313, 79, 4459, IN, NL, LR, FR, 0
 313, 465, 4688, NA, NL, LR, FR, 0
 1140, 465, 4688, NA, NL, LR, FR, 0
 1151, 508, 5135, NA, NL, LR, FR, 0
 1753, -3, 5017, NA, NL, LR, FR, 0
 1285, 4, 5104, NA, NL, LR, FR, 0
 1285, 4, 3934, IN, NL, PU, FR, 0
 1141, -1333, 3934, IN, NL, PU, FR, 0
 1429, -1735, 2302, NA, NL, PU, FR, 0
 1022, -2587, 1544, NA, NL, PU, FR, 0
 1022, -3027, 1042, NA, NL, PU, FR, 0
 1494, -3027, 1042, IN, NL, LR, FR, 0
 2426, -2004, 301, IN, NL, LR, BA, 0
 3404, -705, -1701, NA, NL, LR, BA, 0
 3767, 150, -2225, NA, NL, LR, BA, 0
 3767, 150, -2009, NA, NL, LR, BA, 0
 4114, 517, -2009, NA, NL, LR, BA, 0
 4338, 130, -2496, NA, NL, LR, BA, 0
 3935, -1205, -2533, NA, NL, LR, BA, 0
 3935, -1914, -2078, NA, NL, LR, BA, 0
 3862, -1914, -1804, NA, NL, LR, BA, 0
 3478, -2102, -1804, NA, NL, LR, BA, 0
 3030, -2035, -1616, NA, NL, LR, BA, 0
 2426, -3360, -634, IN, NL, PU, BA, 0
 2426, -3094, 78, IN, NL, PU, FR, 0
 1384, -3094, 78, NA, NL, PU, FR, 0
 160, -2695, 791, NA, NL, PU, FR, 0
 -417, -2654, 2294, NA, NL, PU, FR, 0
 -675, -1787, 3701, IN, ZL, PU, FR, 0
 -675, -1787, 4048, IN, NL, PU, FR, 0
 -619, -988, 4048, IN, NL, PU, FR, 0
 -801, -650, 4574, IN, ZL, PU, FR, 0
 -43, -234, 4360, NA, ZL, PU, FR, 0
 -43, 309, 4428, IN, ZL, LR, FR, 0
 724, 309, 4428, NA, ZL, LR, FR, 0
 974, -207, 5195, IN, NL, LR, FR, 0
 1243, -572, 5101, NA, NL, LR, FR, 0
 1452, -400, 4523, NA, NL, LR, FR, 0
 1452, -1483, 3492, NA, NL, LR, FR, 0
 1821, -1483, 3492, IN, NL, PU, FR, 0
 1123, -2248, 3363, NA, NL, PU, FR, 0
 1535, -2183, 2726, NA, NL, PU, FR, 0
 1963, -1718, 1286, IN, NL, LR, FR, 0
 1963, -1718, 200, NA, NL, LR, FR, 0
 2564, -1975, 200, NA, NL, LR, FR, 0
 3298, -1643, -171, IN, NL, LR, BA, 0
 3835, -870, -1146, NA, NL, LR, BA, 0
 3835, -749, -1114, NA, NL, LR, BA, 0
 3907, -749, -1114, NA, NL, LR, BA, 0
 4452, -117, -1779, NA, NL, LR, BA, 0
 4785, 102, -2094, NA, NL, LR, BA, 0
 4356, -1032, -2345, NA, NL, LR, BA, 0
 4356, -1032, -2226, NA, NL, LR, BA, 0
 4011, -1714, -2226, NA, NL, LR, BA, 0
 2920, -1528, -2429, IN, NL, PU, BA, 0
 1986, -3220, -1040, NA, NL, PU, BA, 0
 1986, -2912, 516, IN, NL, PU, FR, 0
 340, -2912, 790, NA, NL, PU, FR, 0
 -29, -2713, 790, NA, NL, PU, FR, 0
 -735, -2551, 2553, NA, NL, PU, FR, 0
 -1114, -1270, 3513, IN, ZL, PU, FR, 0
 -1114, -674, 4277, NA, ZL, PU, FR, 0
 -545, -674, 4277, NA, ZL, PU, FR, 0
 -646, -243, 4979, NA, ZL, PU, FR, 0
 93, -77, 4905, NA, ZL, PU, FR, 0
 614, -18, 4645, NA, ZL, PU, FR, 0
 614, -18, 5536, NA, ZL, PU, FR, 0
 1029, -351, 5536, NA, ZL, PU, FR, 0
 690, -255, 4901, IN, NL, PU, FR, 0
 655, -826, 4181, IN, NL, LR, FR, 0
 655, -1288, 3689, IN, NL, PU, FR, 0
 945, -1288, 3689, NA, NL, PU, FR, 0
 1340, -1294, 2940, NA, NL, PU, FR, 0
 2388, -1588, 1871, IN, NL, LR, FR, 0
 3204, -1652, 1103, NA, NL, LR, FR, 0
 3204, -847, -259, IN, NL, LR, BA, 0
 3599, -847, -259, NA, NL, LR, BA, 0
 3787, -438, -707, NA, NL, LR, BA, 0
 3965, -229, -1140, NA, NL, LR, BA, 0
 4670, 52, -1553, NA, NL, LR, BA, 0
 4670, 52, -1691, NA, NL, LR, BA, 0
 4986, -331, -1691, NA, NL, LR, BA, 0
 4610, -549, -2295, NA, NL, LR, BA, 0
 4774, -955, -2144, NA, NL, LR, BA, 0
 4774, -1287, -2034, NA, NL, LR, BA, 0
 2977, -1287, -2034, NA, NL, LR, BA, 0
 2104, -2395, -1234, IN, NL, PU, BA, 0
 712, -2019, -705, IN, NL, PU, FR, 0
 753, -2687, 1580, NA, NL, PU, FR, 0
 753, -2687, 2845, NA, NL, PU, FR, 0
 787, -1917, 2845, IN, ZL, PU, FR, 0
 172, -1238, 4197, NA, ZL, PU, FR, 0
 500, -647, 4641, IN, NL, PU, FR, 0
 264, -275, 5799, IN, ZL, PU, FR, 0
 264, -275, 4866, IN, NL, LR, FR, 0
 545, -92, 4866, NA, NL, LR, FR, 0
 1571, -785, 4241, IN, ZL, LR, FR, 0
 878, -354, 3935, IN, NL, LR, FR, 0
 878, -881, 3935, NA, NL, LR, FR, 0
 1828, -881, 3935, NA, NL, LR, FR, 0
 1530, -913, 3815, NA, NL, LR, FR, 0
 1520, -1079, 4205, NA, NL, LR, FR, 0
 1768, -1277, 4553, NA, NL, LR, FR, 0
 1768, -1256, 3748, NA, NL, LR, FR, 0
 1681, -1256, 3748, IN, NL, PU, FR, 0
 1435, -1858, 3390, NA, NL, PU, FR, 0
 1191, -2557, 2234, NA, NL, PU, FR, 0
 1043, -3130, 1310, NA, NL, PU, FR, 0
 1043, -3130, -591, IN, NL, PU, BA, 0
 1010, -3311, -591, NA, NL, PU, BA, 0
 817, -3740, -1126, NA, NL, PU, BA, 0
 588, -4038, -898, NA, NL, PU, BA, 0
 588, -3965, -796, NA, NL, PU, BA, 0
 690, -3965, -796, NA, NL, PU, BA, 0
 824, -4042, -460, NA, NL, PU, BA, 0
 617, -4012, -254, NA, NL, PU, BA, 0
 597, -3929, -311, NA, NL, PU, BA, 0
 597, -3767, -358, NA, NL, PU, BA, 0
 187, -3767, -358, NA, NL, PU, BA, 0
 675, -3925, -33, NA, NL, PU, BA, 0
 411, -3758, 396, IN, NL, PU, FR, 0
 974, -3143, 727, NA, NL, PU, FR, 0
 974, -3143, 2222, NA, NL, PU, FR, 0
 639, -2893, 2222, NA, NL, PU, FR, 0
 455, -2415, 3375, NA, NL, PU, FR, 0
 266, -1831, 3954, IN, ZL, PU, FR, 0
 266, -663, 4455, NA, ZL, PU, FR, 0
 -253, -663, 4908, NA, ZL, PU, FR, 0
 -301, -434, 4908, NA, ZL, PU, FR, 0
 -104, -43, 4430, NA, ZL, PU, FR, 0
 -126, 39, 4337, NA, ZL, PU, FR, 0
 -126, 158, 4584, NA, ZL, PU, FR, 0
 12, 158, 4584, NA, ZL, PU, FR, 0
 -146, 279, 4457, NA, ZL, PU, FR, 0
 -186, 302, 4118, NA, ZL, PU, FR, 0
 -230, 244, 4118, NA, ZL, PU, FR, 0
 -230, 244, 4212, NA, ZL, PU, FR, 0
 -458, 127, 4212, NA, ZL, PU, FR, 0
 -562, 228, 4495, NA, ZL, PU, FR, 0
 -398, 248, 4189, NA, ZL, PU, FR, 0
 -398, 137, 3991, NA, ZL, PU, FR, 0
 -294, 137, 3991, NA, ZL, PU, FR, 0
 -416, 723, 4552, NA, ZL, PU, FR, 0
 102, 238, 4255, NA, ZL, PU, FR, 0
 78, 75, 4461, NA, ZL, PU, FR, 0
 78, 75, 4709, NA, ZL, PU, FR, 0
 -282, 225, 4709, NA, ZL, PU, FR, 0
 -489, 97, 4988, NA, ZL, PU, FR, 0
 -219, 168, 4023, NA, ZL, PU, FR, 0
 -219, 112, 4182, NA, ZL, PU, FR, 0
 -189, 112, 4182, NA, ZL, PU, FR, 0
 -140, 126, 4206, NA, ZL, PU, FR, 0
 -143, 121, 4209, NA, ZL, PU, FR, 0
 -143, 126, 4194, NA, ZL, PU, FR, 0
 -135, 126, 4194, NA, ZL, PU, FR, 0
 -138, 122, 4200, NA, ZL, PU, FR, 0
 -138, 122, 4201, NA, ZL, PU, FR, 0
 -141, 121, 4207, NA, ZL, PU, FR, 0
 -141, 121, 4197, NA, ZL, PU, FR, 0
 -137, 122, 4197, NA, ZL, PU, FR, 0
 -142, 122, 4196, NA, ZL, PU, FR, 0
 -139, 116, 4208, NA, ZL, PU, FR, 0
 -139, 113, 4202, NA, ZL, PU, FR, 0
 -141, 113, 4202, NA, ZL, PU, FR, 0
 -141, 117, 4209, NA, ZL, PU, FR, 0
 -135, 114, 4196, NA, ZL, PU, FR, 0
 -134, 119, 4200, NA, ZL, PU, FR, 0
 -134, 119, 4205, NA, ZL, PU, FR, 0
 -133, 116, 4205, NA, ZL, PU, FR, 0
 -140, 115, 4205, NA, ZL, PU, FR, 0
 -141, 116, 4205, NA, ZL, PU, FR, 0
 -141, 115, 4199, NA, ZL, PU, FR, 0
 -137, 115, 4199, NA, ZL, PU, FR, 0
 -131, 112, 4212, NA, ZL, PU, FR, 0
 -128, 104, 4191, NA, ZL, PU, FR, 0
 -125, 101, 4206, NA, ZL, PU, FR, 0
 -125, 101, 4209, NA, ZL, PU, FR, 0
 -134, 108, 4209, NA, ZL, PU, FR, 0
 -125, 110, 4214, NA, ZL, PU, FR, 0
 -134, 105, 4204, NA, ZL, PU, FR, 0
 -134, 106, 4211, NA, ZL, PU, FR, 0
 -127, 106, 4211, NA, ZL, PU, FR, 0
 -126, 102, 4208, NA, ZL, PU, FR, 0
 -130, 105, 4205, NA, ZL, PU, FR, 0
 -123, 96, 4207, NA, ZL, PU, FR, 0
 -123, 96, 4207, NA, ZL, PU, FR, 0
 -132, 102, 4210, NA, ZL, PU, FR, 0
 -128, 100, 4206, NA, ZL, PU, FR, 0
 -131, 102, 4200, NA, ZL, PU, FR, 0
 -131, 102, 4207, NA, ZL, PU, FR, 0
 -125, 99, 4207, NA, ZL, PU, FR, 0
 -129, 100, 4208, NA, ZL, PU, FR, 0
 -132, 98, 4205, NA, ZL, PU, FR, 0
 -132, 98, 4212, NA, ZL, PU, FR, 0
 -130, 98, 4212, NA, ZL, PU, FR, 0
 -125, 104, 4207, NA, ZL, PU, FR, 0
 -122, 72, 4195, NA, ZL, PU, FR, 0
 -110, 105, 4215, NA, ZL, PU, FR, 0
 -110, 105, 4204, NA, ZL, PU, FR, 0
 -117, 92, 4204, NA, ZL, PU, FR, 0
 -115, 88, 4203, NA, ZL, PU, FR, 0
 -115, 90, 4205, NA, ZL, PU, FR, 0
 -115, 85, 4205, NA, ZL, PU, FR, 0
 -120, 85, 4205, NA, ZL, PU, FR, 0
 -117, 90, 4211, NA, ZL, PU, FR, 0
 -119, 87, 4210, NA, ZL, PU, FR, 0
 -115, 87, 4208, NA, ZL, PU, FR, 0
 -115, 87, 4206, NA, ZL, PU, FR, 0
