<?xml version="1.0" encoding="utf-8" standalone="no"?>
<!DOCTYPE svg PUBLIC "-//W3C//DTD SVG 1.1//EN"
  "http://www.w3.org/Graphics/SVG/1.1/DTD/svg11.dtd">
<svg xmlns:xlink="http://www.w3.org/1999/xlink" width="360pt" height="360pt" viewBox="0 0 360 360" xmlns="http://www.w3.org/2000/svg" version="1.1">
 <metadata>
  <rdf:RDF xmlns:dc="http://purl.org/dc/elements/1.1/" xmlns:cc="http://creativecommons.org/ns#" xmlns:rdf="http://www.w3.org/1999/02/22-rdf-syntax-ns#">
   <cc:Work>
    <dc:type rdf:resource="http://purl.org/dc/dcmitype/StillImage"/>
    <dc:date>2024-03-19T15:18:24.437129</dc:date>
    <dc:format>image/svg+xml</dc:format>
    <dc:creator>
     <cc:Agent>
      <dc:title>Matplotlib v3.8.2, https://matplotlib.org/</dc:title>
     </cc:Agent>
    </dc:creator>
   </cc:Work>
  </rdf:RDF>
 </metadata>
 <defs>
  <style type="text/css">*{stroke-linejoin: round; stroke-linecap: butt}</style>
 </defs>
 <g id="figure_1">
  <g id="patch_1">
   <path d="M 0 360 
L 360 360 
L 360 0 
L 0 0 
z
" style="fill: #ffffff"/>
  </g>
  <g id="axes_1">
   <g id="patch_2">
    <path d="M 49.71875 317.6125 
L 349.2 317.6125 
L 349.2 10.8 
L 49.71875 10.8 
z
" style="fill: #ffffff"/>
   </g>
   <g id="patch_3">
    <path d="M 75.706792 317.6125 
L 78.653282 317.6125 
L 78.653282 317.113861 
L 75.706792 317.113861 
z
" clip-path="url(#p7d16c60e6f)" style="fill: #1f77b4; fill-opacity: 0.5; stroke: #000000; stroke-width: 0.338203; stroke-linejoin: miter"/>
   </g>
   <g id="patch_4">
    <path d="M 78.653282 317.6125 
L 81.599772 317.6125 
L 81.599772 317.113861 
L 78.653282 317.113861 
z
" clip-path="url(#p7d16c60e6f)" style="fill: #1f77b4; fill-opacity: 0.5; stroke: #000000; stroke-width: 0.338203; stroke-linejoin: miter"/>
   </g>
   <g id="patch_5">
    <path d="M 81.599772 317.6125 
L 84.546263 317.6125 
L 84.546263 317.6125 
L 81.599772 317.6125 
z
" clip-path="url(#p7d16c60e6f)" style="fill: #1f77b4; fill-opacity: 0.5; stroke: #000000; stroke-width: 0.338203; stroke-linejoin: miter"/>
   </g>
   <g id="patch_6">
    <path d="M 84.546263 317.6125 
L 87.492753 317.6125 
L 87.492753 317.6125 
L 84.546263 317.6125 
z
" clip-path="url(#p7d16c60e6f)" style="fill: #1f77b4; fill-opacity: 0.5; stroke: #000000; stroke-width: 0.338203; stroke-linejoin: miter"/>
   </g>
   <g id="patch_7">
    <path d="M 87.492753 317.6125 
L 90.439243 317.6125 
L 90.439243 317.113861 
L 87.492753 317.113861 
z
" clip-path="url(#p7d16c60e6f)" style="fill: #1f77b4; fill-opacity: 0.5; stroke: #000000; stroke-width: 0.338203; stroke-linejoin: miter"/>
   </g>
   <g id="patch_8">
    <path d="M 90.439243 317.6125 
L 93.385733 317.6125 
L 93.385733 317.113861 
L 90.439243 317.113861 
z
" clip-path="url(#p7d16c60e6f)" style="fill: #1f77b4; fill-opacity: 0.5; stroke: #000000; stroke-width: 0.338203; stroke-linejoin: miter"/>
   </g>
   <g id="patch_9">
    <path d="M 93.385733 317.6125 
L 96.332223 317.6125 
L 96.332223 317.6125 
L 93.385733 317.6125 
z
" clip-path="url(#p7d16c60e6f)" style="fill: #1f77b4; fill-opacity: 0.5; stroke: #000000; stroke-width: 0.338203; stroke-linejoin: miter"/>
   </g>
   <g id="patch_10">
    <path d="M 96.332223 317.6125 
L 99.278713 317.6125 
L 99.278713 317.113861 
L 96.332223 317.113861 
z
" clip-path="url(#p7d16c60e6f)" style="fill: #1f77b4; fill-opacity: 0.5; stroke: #000000; stroke-width: 0.338203; stroke-linejoin: miter"/>
   </g>
   <g id="patch_11">
    <path d="M 99.278713 317.6125 
L 102.225203 317.6125 
L 102.225203 317.6125 
L 99.278713 317.6125 
z
" clip-path="url(#p7d16c60e6f)" style="fill: #1f77b4; fill-opacity: 0.5; stroke: #000000; stroke-width: 0.338203; stroke-linejoin: miter"/>
   </g>
   <g id="patch_12">
    <path d="M 102.225203 317.6125 
L 105.171693 317.6125 
L 105.171693 316.615222 
L 102.225203 316.615222 
z
" clip-path="url(#p7d16c60e6f)" style="fill: #1f77b4; fill-opacity: 0.5; stroke: #000000; stroke-width: 0.338203; stroke-linejoin: miter"/>
   </g>
   <g id="patch_13">
    <path d="M 105.171693 317.6125 
L 108.118183 317.6125 
L 108.118183 317.6125 
L 105.171693 317.6125 
z
" clip-path="url(#p7d16c60e6f)" style="fill: #1f77b4; fill-opacity: 0.5; stroke: #000000; stroke-width: 0.338203; stroke-linejoin: miter"/>
   </g>
   <g id="patch_14">
    <path d="M 108.118183 317.6125 
L 111.064673 317.6125 
L 111.064673 314.620667 
L 108.118183 314.620667 
z
" clip-path="url(#p7d16c60e6f)" style="fill: #1f77b4; fill-opacity: 0.5; stroke: #000000; stroke-width: 0.338203; stroke-linejoin: miter"/>
   </g>
   <g id="patch_15">
    <path d="M 111.064673 317.6125 
L 114.011163 317.6125 
L 114.011163 314.122028 
L 111.064673 314.122028 
z
" clip-path="url(#p7d16c60e6f)" style="fill: #1f77b4; fill-opacity: 0.5; stroke: #000000; stroke-width: 0.338203; stroke-linejoin: miter"/>
   </g>
   <g id="patch_16">
    <path d="M 114.011163 317.6125 
L 116.957653 317.6125 
L 116.957653 317.6125 
L 114.011163 317.6125 
z
" clip-path="url(#p7d16c60e6f)" style="fill: #1f77b4; fill-opacity: 0.5; stroke: #000000; stroke-width: 0.338203; stroke-linejoin: miter"/>
   </g>
   <g id="patch_17">
    <path d="M 116.957653 317.6125 
L 119.904143 317.6125 
L 119.904143 312.127472 
L 116.957653 312.127472 
z
" clip-path="url(#p7d16c60e6f)" style="fill: #1f77b4; fill-opacity: 0.5; stroke: #000000; stroke-width: 0.338203; stroke-linejoin: miter"/>
   </g>
   <g id="patch_18">
    <path d="M 119.904143 317.6125 
L 122.850633 317.6125 
L 122.850633 314.122028 
L 119.904143 314.122028 
z
" clip-path="url(#p7d16c60e6f)" style="fill: #1f77b4; fill-opacity: 0.5; stroke: #000000; stroke-width: 0.338203; stroke-linejoin: miter"/>
   </g>
   <g id="patch_19">
    <path d="M 122.850633 317.6125 
L 125.797123 317.6125 
L 125.797123 317.6125 
L 122.850633 317.6125 
z
" clip-path="url(#p7d16c60e6f)" style="fill: #1f77b4; fill-opacity: 0.5; stroke: #000000; stroke-width: 0.338203; stroke-linejoin: miter"/>
   </g>
   <g id="patch_20">
    <path d="M 125.797123 317.6125 
L 128.743613 317.6125 
L 128.743613 311.628833 
L 125.797123 311.628833 
z
" clip-path="url(#p7d16c60e6f)" style="fill: #1f77b4; fill-opacity: 0.5; stroke: #000000; stroke-width: 0.338203; stroke-linejoin: miter"/>
   </g>
   <g id="patch_21">
    <path d="M 128.743613 317.6125 
L 131.690104 317.6125 
L 131.690104 310.132917 
L 128.743613 310.132917 
z
" clip-path="url(#p7d16c60e6f)" style="fill: #1f77b4; fill-opacity: 0.5; stroke: #000000; stroke-width: 0.338203; stroke-linejoin: miter"/>
   </g>
   <g id="patch_22">
    <path d="M 131.690104 317.6125 
L 134.636594 317.6125 
L 134.636594 311.628833 
L 131.690104 311.628833 
z
" clip-path="url(#p7d16c60e6f)" style="fill: #1f77b4; fill-opacity: 0.5; stroke: #000000; stroke-width: 0.338203; stroke-linejoin: miter"/>
   </g>
   <g id="patch_23">
    <path d="M 134.636594 317.6125 
L 137.583084 317.6125 
L 137.583084 317.6125 
L 134.636594 317.6125 
z
" clip-path="url(#p7d16c60e6f)" style="fill: #1f77b4; fill-opacity: 0.5; stroke: #000000; stroke-width: 0.338203; stroke-linejoin: miter"/>
   </g>
   <g id="patch_24">
    <path d="M 137.583084 317.6125 
L 140.529574 317.6125 
L 140.529574 303.151973 
L 137.583084 303.151973 
z
" clip-path="url(#p7d16c60e6f)" style="fill: #1f77b4; fill-opacity: 0.5; stroke: #000000; stroke-width: 0.338203; stroke-linejoin: miter"/>
   </g>
   <g id="patch_25">
    <path d="M 140.529574 317.6125 
L 143.476064 317.6125 
L 143.476064 295.173751 
L 140.529574 295.173751 
z
" clip-path="url(#p7d16c60e6f)" style="fill: #1f77b4; fill-opacity: 0.5; stroke: #000000; stroke-width: 0.338203; stroke-linejoin: miter"/>
   </g>
   <g id="patch_26">
    <path d="M 143.476064 317.6125 
L 146.422554 317.6125 
L 146.422554 317.6125 
L 143.476064 317.6125 
z
" clip-path="url(#p7d16c60e6f)" style="fill: #1f77b4; fill-opacity: 0.5; stroke: #000000; stroke-width: 0.338203; stroke-linejoin: miter"/>
   </g>
   <g id="patch_27">
    <path d="M 146.422554 317.6125 
L 149.369044 317.6125 
L 149.369044 289.190084 
L 146.422554 289.190084 
z
" clip-path="url(#p7d16c60e6f)" style="fill: #1f77b4; fill-opacity: 0.5; stroke: #000000; stroke-width: 0.338203; stroke-linejoin: miter"/>
   </g>
   <g id="patch_28">
    <path d="M 149.369044 317.6125 
L 152.315534 317.6125 
L 152.315534 285.200973 
L 149.369044 285.200973 
z
" clip-path="url(#p7d16c60e6f)" style="fill: #1f77b4; fill-opacity: 0.5; stroke: #000000; stroke-width: 0.338203; stroke-linejoin: miter"/>
   </g>
   <g id="patch_29">
    <path d="M 152.315534 317.6125 
L 155.262024 317.6125 
L 155.262024 317.6125 
L 152.315534 317.6125 
z
" clip-path="url(#p7d16c60e6f)" style="fill: #1f77b4; fill-opacity: 0.5; stroke: #000000; stroke-width: 0.338203; stroke-linejoin: miter"/>
   </g>
   <g id="patch_30">
    <path d="M 155.262024 317.6125 
L 158.208514 317.6125 
L 158.208514 266.751335 
L 155.262024 266.751335 
z
" clip-path="url(#p7d16c60e6f)" style="fill: #1f77b4; fill-opacity: 0.5; stroke: #000000; stroke-width: 0.338203; stroke-linejoin: miter"/>
   </g>
   <g id="patch_31">
    <path d="M 158.208514 317.6125 
L 161.155004 317.6125 
L 161.155004 274.230918 
L 158.208514 274.230918 
z
" clip-path="url(#p7d16c60e6f)" style="fill: #1f77b4; fill-opacity: 0.5; stroke: #000000; stroke-width: 0.338203; stroke-linejoin: miter"/>
   </g>
   <g id="patch_32">
    <path d="M 161.155004 317.6125 
L 164.101494 317.6125 
L 164.101494 263.759501 
L 161.155004 263.759501 
z
" clip-path="url(#p7d16c60e6f)" style="fill: #1f77b4; fill-opacity: 0.5; stroke: #000000; stroke-width: 0.338203; stroke-linejoin: miter"/>
   </g>
   <g id="patch_33">
    <path d="M 164.101494 317.6125 
L 167.047984 317.6125 
L 167.047984 317.6125 
L 164.101494 317.6125 
z
" clip-path="url(#p7d16c60e6f)" style="fill: #1f77b4; fill-opacity: 0.5; stroke: #000000; stroke-width: 0.338203; stroke-linejoin: miter"/>
   </g>
   <g id="patch_34">
    <path d="M 167.047984 317.6125 
L 169.994474 317.6125 
L 169.994474 244.312585 
L 167.047984 244.312585 
z
" clip-path="url(#p7d16c60e6f)" style="fill: #1f77b4; fill-opacity: 0.5; stroke: #000000; stroke-width: 0.338203; stroke-linejoin: miter"/>
   </g>
   <g id="patch_35">
    <path d="M 169.994474 317.6125 
L 172.940964 317.6125 
L 172.940964 227.358864 
L 169.994474 227.358864 
z
" clip-path="url(#p7d16c60e6f)" style="fill: #1f77b4; fill-opacity: 0.5; stroke: #000000; stroke-width: 0.338203; stroke-linejoin: miter"/>
   </g>
   <g id="patch_36">
    <path d="M 172.940964 317.6125 
L 175.887454 317.6125 
L 175.887454 317.6125 
L 172.940964 317.6125 
z
" clip-path="url(#p7d16c60e6f)" style="fill: #1f77b4; fill-opacity: 0.5; stroke: #000000; stroke-width: 0.338203; stroke-linejoin: miter"/>
   </g>
   <g id="patch_37">
    <path d="M 175.887454 317.6125 
L 178.833945 317.6125 
L 178.833945 218.383364 
L 175.887454 218.383364 
z
" clip-path="url(#p7d16c60e6f)" style="fill: #1f77b4; fill-opacity: 0.5; stroke: #000000; stroke-width: 0.338203; stroke-linejoin: miter"/>
   </g>
   <g id="patch_38">
    <path d="M 178.833945 317.6125 
L 181.780435 317.6125 
L 181.780435 186.470476 
L 178.833945 186.470476 
z
" clip-path="url(#p7d16c60e6f)" style="fill: #1f77b4; fill-opacity: 0.5; stroke: #000000; stroke-width: 0.338203; stroke-linejoin: miter"/>
   </g>
   <g id="patch_39">
    <path d="M 181.780435 317.6125 
L 184.726925 317.6125 
L 184.726925 317.6125 
L 181.780435 317.6125 
z
" clip-path="url(#p7d16c60e6f)" style="fill: #1f77b4; fill-opacity: 0.5; stroke: #000000; stroke-width: 0.338203; stroke-linejoin: miter"/>
   </g>
   <g id="patch_40">
    <path d="M 184.726925 317.6125 
L 187.673415 317.6125 
L 187.673415 133.614755 
L 184.726925 133.614755 
z
" clip-path="url(#p7d16c60e6f)" style="fill: #1f77b4; fill-opacity: 0.5; stroke: #000000; stroke-width: 0.338203; stroke-linejoin: miter"/>
   </g>
   <g id="patch_41">
    <path d="M 187.673415 317.6125 
L 190.619905 317.6125 
L 190.619905 66.298507 
L 187.673415 66.298507 
z
" clip-path="url(#p7d16c60e6f)" style="fill: #1f77b4; fill-opacity: 0.5; stroke: #000000; stroke-width: 0.338203; stroke-linejoin: miter"/>
   </g>
   <g id="patch_42">
    <path d="M 190.619905 317.6125 
L 193.566395 317.6125 
L 193.566395 72.780812 
L 190.619905 72.780812 
z
" clip-path="url(#p7d16c60e6f)" style="fill: #1f77b4; fill-opacity: 0.5; stroke: #000000; stroke-width: 0.338203; stroke-linejoin: miter"/>
   </g>
   <g id="patch_43">
    <path d="M 193.566395 317.6125 
L 196.512885 317.6125 
L 196.512885 317.6125 
L 193.566395 317.6125 
z
" clip-path="url(#p7d16c60e6f)" style="fill: #1f77b4; fill-opacity: 0.5; stroke: #000000; stroke-width: 0.338203; stroke-linejoin: miter"/>
   </g>
   <g id="patch_44">
    <path d="M 196.512885 317.6125 
L 199.459375 317.6125 
L 199.459375 33.388341 
L 196.512885 33.388341 
z
" clip-path="url(#p7d16c60e6f)" style="fill: #1f77b4; fill-opacity: 0.5; stroke: #000000; stroke-width: 0.338203; stroke-linejoin: miter"/>
   </g>
   <g id="patch_45">
    <path d="M 199.459375 317.6125 
L 202.405865 317.6125 
L 202.405865 25.410119 
L 199.459375 25.410119 
z
" clip-path="url(#p7d16c60e6f)" style="fill: #1f77b4; fill-opacity: 0.5; stroke: #000000; stroke-width: 0.338203; stroke-linejoin: miter"/>
   </g>
   <g id="patch_46">
    <path d="M 202.405865 317.6125 
L 205.352355 317.6125 
L 205.352355 317.6125 
L 202.405865 317.6125 
z
" clip-path="url(#p7d16c60e6f)" style="fill: #1f77b4; fill-opacity: 0.5; stroke: #000000; stroke-width: 0.338203; stroke-linejoin: miter"/>
   </g>
   <g id="patch_47">
    <path d="M 205.352355 317.6125 
L 208.298845 317.6125 
L 208.298845 48.846146 
L 205.352355 48.846146 
z
" clip-path="url(#p7d16c60e6f)" style="fill: #1f77b4; fill-opacity: 0.5; stroke: #000000; stroke-width: 0.338203; stroke-linejoin: miter"/>
   </g>
   <g id="patch_48">
    <path d="M 208.298845 317.6125 
L 211.245335 317.6125 
L 211.245335 52.835257 
L 208.298845 52.835257 
z
" clip-path="url(#p7d16c60e6f)" style="fill: #1f77b4; fill-opacity: 0.5; stroke: #000000; stroke-width: 0.338203; stroke-linejoin: miter"/>
   </g>
   <g id="patch_49">
    <path d="M 211.245335 317.6125 
L 214.191825 317.6125 
L 214.191825 67.794423 
L 211.245335 67.794423 
z
" clip-path="url(#p7d16c60e6f)" style="fill: #1f77b4; fill-opacity: 0.5; stroke: #000000; stroke-width: 0.338203; stroke-linejoin: miter"/>
   </g>
   <g id="patch_50">
    <path d="M 214.191825 317.6125 
L 217.138315 317.6125 
L 217.138315 317.6125 
L 214.191825 317.6125 
z
" clip-path="url(#p7d16c60e6f)" style="fill: #1f77b4; fill-opacity: 0.5; stroke: #000000; stroke-width: 0.338203; stroke-linejoin: miter"/>
   </g>
   <g id="patch_51">
    <path d="M 217.138315 317.6125 
L 220.084805 317.6125 
L 220.084805 97.712756 
L 217.138315 97.712756 
z
" clip-path="url(#p7d16c60e6f)" style="fill: #1f77b4; fill-opacity: 0.5; stroke: #000000; stroke-width: 0.338203; stroke-linejoin: miter"/>
   </g>
   <g id="patch_52">
    <path d="M 220.084805 317.6125 
L 223.031296 317.6125 
L 223.031296 131.620199 
L 220.084805 131.620199 
z
" clip-path="url(#p7d16c60e6f)" style="fill: #1f77b4; fill-opacity: 0.5; stroke: #000000; stroke-width: 0.338203; stroke-linejoin: miter"/>
   </g>
   <g id="patch_53">
    <path d="M 223.031296 317.6125 
L 225.977786 317.6125 
L 225.977786 317.6125 
L 223.031296 317.6125 
z
" clip-path="url(#p7d16c60e6f)" style="fill: #1f77b4; fill-opacity: 0.5; stroke: #000000; stroke-width: 0.338203; stroke-linejoin: miter"/>
   </g>
   <g id="patch_54">
    <path d="M 225.977786 317.6125 
L 228.924276 317.6125 
L 228.924276 143.587533 
L 225.977786 143.587533 
z
" clip-path="url(#p7d16c60e6f)" style="fill: #1f77b4; fill-opacity: 0.5; stroke: #000000; stroke-width: 0.338203; stroke-linejoin: miter"/>
   </g>
   <g id="patch_55">
    <path d="M 228.924276 317.6125 
L 231.870766 317.6125 
L 231.870766 175.500421 
L 228.924276 175.500421 
z
" clip-path="url(#p7d16c60e6f)" style="fill: #1f77b4; fill-opacity: 0.5; stroke: #000000; stroke-width: 0.338203; stroke-linejoin: miter"/>
   </g>
   <g id="patch_56">
    <path d="M 231.870766 317.6125 
L 234.817256 317.6125 
L 234.817256 317.6125 
L 231.870766 317.6125 
z
" clip-path="url(#p7d16c60e6f)" style="fill: #1f77b4; fill-opacity: 0.5; stroke: #000000; stroke-width: 0.338203; stroke-linejoin: miter"/>
   </g>
   <g id="patch_57">
    <path d="M 234.817256 317.6125 
L 237.763746 317.6125 
L 237.763746 199.933725 
L 234.817256 199.933725 
z
" clip-path="url(#p7d16c60e6f)" style="fill: #1f77b4; fill-opacity: 0.5; stroke: #000000; stroke-width: 0.338203; stroke-linejoin: miter"/>
   </g>
   <g id="patch_58">
    <path d="M 237.763746 317.6125 
L 240.710236 317.6125 
L 240.710236 225.862947 
L 237.763746 225.862947 
z
" clip-path="url(#p7d16c60e6f)" style="fill: #1f77b4; fill-opacity: 0.5; stroke: #000000; stroke-width: 0.338203; stroke-linejoin: miter"/>
   </g>
   <g id="patch_59">
    <path d="M 240.710236 317.6125 
L 243.656726 317.6125 
L 243.656726 240.822113 
L 240.710236 240.822113 
z
" clip-path="url(#p7d16c60e6f)" style="fill: #1f77b4; fill-opacity: 0.5; stroke: #000000; stroke-width: 0.338203; stroke-linejoin: miter"/>
   </g>
   <g id="patch_60">
    <path d="M 243.656726 317.6125 
L 246.603216 317.6125 
L 246.603216 317.6125 
L 243.656726 317.6125 
z
" clip-path="url(#p7d16c60e6f)" style="fill: #1f77b4; fill-opacity: 0.5; stroke: #000000; stroke-width: 0.338203; stroke-linejoin: miter"/>
   </g>
   <g id="patch_61">
    <path d="M 246.603216 317.6125 
L 249.549706 317.6125 
L 249.549706 267.748612 
L 246.603216 267.748612 
z
" clip-path="url(#p7d16c60e6f)" style="fill: #1f77b4; fill-opacity: 0.5; stroke: #000000; stroke-width: 0.338203; stroke-linejoin: miter"/>
   </g>
   <g id="patch_62">
    <path d="M 249.549706 317.6125 
L 252.496196 317.6125 
L 252.496196 283.206418 
L 249.549706 283.206418 
z
" clip-path="url(#p7d16c60e6f)" style="fill: #1f77b4; fill-opacity: 0.5; stroke: #000000; stroke-width: 0.338203; stroke-linejoin: miter"/>
   </g>
   <g id="patch_63">
    <path d="M 252.496196 317.6125 
L 255.442686 317.6125 
L 255.442686 317.6125 
L 252.496196 317.6125 
z
" clip-path="url(#p7d16c60e6f)" style="fill: #1f77b4; fill-opacity: 0.5; stroke: #000000; stroke-width: 0.338203; stroke-linejoin: miter"/>
   </g>
   <g id="patch_64">
    <path d="M 255.442686 317.6125 
L 258.389176 317.6125 
L 258.389176 285.200973 
L 255.442686 285.200973 
z
" clip-path="url(#p7d16c60e6f)" style="fill: #1f77b4; fill-opacity: 0.5; stroke: #000000; stroke-width: 0.338203; stroke-linejoin: miter"/>
   </g>
   <g id="patch_65">
    <path d="M 258.389176 317.6125 
L 261.335666 317.6125 
L 261.335666 293.179195 
L 258.389176 293.179195 
z
" clip-path="url(#p7d16c60e6f)" style="fill: #1f77b4; fill-opacity: 0.5; stroke: #000000; stroke-width: 0.338203; stroke-linejoin: miter"/>
   </g>
   <g id="patch_66">
    <path d="M 261.335666 317.6125 
L 264.282156 317.6125 
L 264.282156 317.6125 
L 261.335666 317.6125 
z
" clip-path="url(#p7d16c60e6f)" style="fill: #1f77b4; fill-opacity: 0.5; stroke: #000000; stroke-width: 0.338203; stroke-linejoin: miter"/>
   </g>
   <g id="patch_67">
    <path d="M 264.282156 317.6125 
L 267.228646 317.6125 
L 267.228646 300.658778 
L 264.282156 300.658778 
z
" clip-path="url(#p7d16c60e6f)" style="fill: #1f77b4; fill-opacity: 0.5; stroke: #000000; stroke-width: 0.338203; stroke-linejoin: miter"/>
   </g>
   <g id="patch_68">
    <path d="M 267.228646 317.6125 
L 270.175137 317.6125 
L 270.175137 308.637 
L 267.228646 308.637 
z
" clip-path="url(#p7d16c60e6f)" style="fill: #1f77b4; fill-opacity: 0.5; stroke: #000000; stroke-width: 0.338203; stroke-linejoin: miter"/>
   </g>
   <g id="patch_69">
    <path d="M 270.175137 317.6125 
L 273.121627 317.6125 
L 273.121627 311.130195 
L 270.175137 311.130195 
z
" clip-path="url(#p7d16c60e6f)" style="fill: #1f77b4; fill-opacity: 0.5; stroke: #000000; stroke-width: 0.338203; stroke-linejoin: miter"/>
   </g>
   <g id="patch_70">
    <path d="M 273.121627 317.6125 
L 276.068117 317.6125 
L 276.068117 317.6125 
L 273.121627 317.6125 
z
" clip-path="url(#p7d16c60e6f)" style="fill: #1f77b4; fill-opacity: 0.5; stroke: #000000; stroke-width: 0.338203; stroke-linejoin: miter"/>
   </g>
   <g id="patch_71">
    <path d="M 276.068117 317.6125 
L 279.014607 317.6125 
L 279.014607 312.127472 
L 276.068117 312.127472 
z
" clip-path="url(#p7d16c60e6f)" style="fill: #1f77b4; fill-opacity: 0.5; stroke: #000000; stroke-width: 0.338203; stroke-linejoin: miter"/>
   </g>
   <g id="patch_72">
    <path d="M 279.014607 317.6125 
L 281.961097 317.6125 
L 281.961097 314.620667 
L 279.014607 314.620667 
z
" clip-path="url(#p7d16c60e6f)" style="fill: #1f77b4; fill-opacity: 0.5; stroke: #000000; stroke-width: 0.338203; stroke-linejoin: miter"/>
   </g>
   <g id="patch_73">
    <path d="M 281.961097 317.6125 
L 284.907587 317.6125 
L 284.907587 317.6125 
L 281.961097 317.6125 
z
" clip-path="url(#p7d16c60e6f)" style="fill: #1f77b4; fill-opacity: 0.5; stroke: #000000; stroke-width: 0.338203; stroke-linejoin: miter"/>
   </g>
   <g id="patch_74">
    <path d="M 284.907587 317.6125 
L 287.854077 317.6125 
L 287.854077 315.119306 
L 284.907587 315.119306 
z
" clip-path="url(#p7d16c60e6f)" style="fill: #1f77b4; fill-opacity: 0.5; stroke: #000000; stroke-width: 0.338203; stroke-linejoin: miter"/>
   </g>
   <g id="patch_75">
    <path d="M 287.854077 317.6125 
L 290.800567 317.6125 
L 290.800567 316.116583 
L 287.854077 316.116583 
z
" clip-path="url(#p7d16c60e6f)" style="fill: #1f77b4; fill-opacity: 0.5; stroke: #000000; stroke-width: 0.338203; stroke-linejoin: miter"/>
   </g>
   <g id="patch_76">
    <path d="M 290.800567 317.6125 
L 293.747057 317.6125 
L 293.747057 317.6125 
L 290.800567 317.6125 
z
" clip-path="url(#p7d16c60e6f)" style="fill: #1f77b4; fill-opacity: 0.5; stroke: #000000; stroke-width: 0.338203; stroke-linejoin: miter"/>
   </g>
   <g id="patch_77">
    <path d="M 293.747057 317.6125 
L 296.693547 317.6125 
L 296.693547 317.113861 
L 293.747057 317.113861 
z
" clip-path="url(#p7d16c60e6f)" style="fill: #1f77b4; fill-opacity: 0.5; stroke: #000000; stroke-width: 0.338203; stroke-linejoin: miter"/>
   </g>
   <g id="patch_78">
    <path d="M 296.693547 317.6125 
L 299.640037 317.6125 
L 299.640037 316.615222 
L 296.693547 316.615222 
z
" clip-path="url(#p7d16c60e6f)" style="fill: #1f77b4; fill-opacity: 0.5; stroke: #000000; stroke-width: 0.338203; stroke-linejoin: miter"/>
   </g>
   <g id="patch_79">
    <path d="M 299.640037 317.6125 
L 302.586527 317.6125 
L 302.586527 317.113861 
L 299.640037 317.113861 
z
" clip-path="url(#p7d16c60e6f)" style="fill: #1f77b4; fill-opacity: 0.5; stroke: #000000; stroke-width: 0.338203; stroke-linejoin: miter"/>
   </g>
   <g id="patch_80">
    <path d="M 302.586527 317.6125 
L 305.533017 317.6125 
L 305.533017 317.6125 
L 302.586527 317.6125 
z
" clip-path="url(#p7d16c60e6f)" style="fill: #1f77b4; fill-opacity: 0.5; stroke: #000000; stroke-width: 0.338203; stroke-linejoin: miter"/>
   </g>
   <g id="patch_81">
    <path d="M 305.533017 317.6125 
L 308.479507 317.6125 
L 308.479507 317.113861 
L 305.533017 317.113861 
z
" clip-path="url(#p7d16c60e6f)" style="fill: #1f77b4; fill-opacity: 0.5; stroke: #000000; stroke-width: 0.338203; stroke-linejoin: miter"/>
   </g>
   <g id="patch_82">
    <path d="M 308.479507 317.6125 
L 311.425997 317.6125 
L 311.425997 317.6125 
L 308.479507 317.6125 
z
" clip-path="url(#p7d16c60e6f)" style="fill: #1f77b4; fill-opacity: 0.5; stroke: #000000; stroke-width: 0.338203; stroke-linejoin: miter"/>
   </g>
   <g id="patch_83">
    <path d="M 311.425997 317.6125 
L 314.372487 317.6125 
L 314.372487 317.6125 
L 311.425997 317.6125 
z
" clip-path="url(#p7d16c60e6f)" style="fill: #1f77b4; fill-opacity: 0.5; stroke: #000000; stroke-width: 0.338203; stroke-linejoin: miter"/>
   </g>
   <g id="patch_84">
    <path d="M 314.372487 317.6125 
L 317.318978 317.6125 
L 317.318978 317.113861 
L 314.372487 317.113861 
z
" clip-path="url(#p7d16c60e6f)" style="fill: #1f77b4; fill-opacity: 0.5; stroke: #000000; stroke-width: 0.338203; stroke-linejoin: miter"/>
   </g>
   <g id="patch_85">
    <path d="M 317.318978 317.6125 
L 320.265468 317.6125 
L 320.265468 317.6125 
L 317.318978 317.6125 
z
" clip-path="url(#p7d16c60e6f)" style="fill: #1f77b4; fill-opacity: 0.5; stroke: #000000; stroke-width: 0.338203; stroke-linejoin: miter"/>
   </g>
   <g id="patch_86">
    <path d="M 320.265468 317.6125 
L 323.211958 317.6125 
L 323.211958 317.113861 
L 320.265468 317.113861 
z
" clip-path="url(#p7d16c60e6f)" style="fill: #1f77b4; fill-opacity: 0.5; stroke: #000000; stroke-width: 0.338203; stroke-linejoin: miter"/>
   </g>
   <g id="matplotlib.axis_1">
    <g id="xtick_1">
     <g id="line2d_1">
      <defs>
       <path id="mc42635e45d" d="M 0 0 
L 0 3.5 
" style="stroke: #000000; stroke-width: 0.8"/>
      </defs>
      <g>
       <use xlink:href="#mc42635e45d" x="71.51179" y="317.6125" style="stroke: #000000; stroke-width: 0.8"/>
      </g>
     </g>
     <g id="text_1">
      <!-- 4160 -->
      <g transform="translate(61.51179 331.8875) scale(0.1 -0.1)">
       <defs>
        <path id="Palatino-Roman-34" d="M 1003 0 
L 1003 184 
Q 1491 194 1575 211 
Q 1659 228 1694 266 
Q 1738 319 1756 456 
Q 1784 688 1784 934 
L 1784 1166 
L 1100 1166 
Q 534 1166 91 1147 
L 38 1316 
Q 278 1769 681 2425 
Q 1269 3381 1853 4266 
Q 1888 4281 2022 4338 
Q 2259 4431 2294 4444 
L 2372 4406 
Q 2350 4031 2344 3481 
Q 2328 2322 2328 2209 
L 2328 1563 
Q 2753 1566 3025 1584 
Q 3016 1428 3016 1378 
L 3025 1147 
Q 2706 1166 2488 1166 
L 2328 1166 
L 2328 956 
Q 2328 431 2375 316 
Q 2394 269 2450 241 
Q 2569 188 3025 184 
L 3025 0 
Q 2350 25 1988 25 
Q 1597 25 1003 0 
z
M 450 1563 
L 1784 1563 
L 1813 3784 
Q 1472 3294 1042 2584 
Q 613 1875 450 1563 
z
" transform="scale(0.015625)"/>
        <path id="Palatino-Roman-31" d="M 478 3559 
L 422 3575 
L 391 3831 
L 422 3863 
Q 756 3959 1150 4128 
Q 1731 4375 1897 4459 
L 1978 4428 
Q 1928 2997 1928 2784 
L 1928 1625 
Q 1928 931 1944 575 
Q 1953 366 1995 311 
Q 2038 256 2120 232 
Q 2203 209 2663 191 
L 2663 0 
Q 1872 25 1672 25 
Q 1522 25 613 0 
L 613 191 
Q 1088 219 1161 236 
Q 1234 253 1270 287 
Q 1306 322 1322 384 
Q 1347 481 1365 942 
Q 1384 1403 1384 1641 
L 1384 2872 
Q 1384 3625 1381 3816 
Q 1381 3900 1359 3922 
Q 1347 3934 1325 3934 
Q 1297 3934 1181 3884 
Q 650 3647 478 3559 
z
" transform="scale(0.015625)"/>
        <path id="Palatino-Roman-36" d="M 2700 4347 
L 2700 4309 
Q 2353 4231 1975 4000 
Q 1597 3769 1356 3473 
Q 1116 3178 998 2867 
Q 881 2556 847 2153 
Q 1028 2281 1116 2347 
Q 1341 2522 1405 2556 
Q 1469 2591 1580 2617 
Q 1691 2644 1847 2644 
Q 2391 2644 2687 2334 
Q 2984 2025 2984 1438 
Q 2984 1038 2838 741 
Q 2688 438 2511 281 
Q 2334 125 2104 17 
Q 1875 -91 1541 -91 
Q 969 -91 594 342 
Q 219 775 219 1603 
Q 219 2172 395 2653 
Q 572 3134 878 3481 
Q 1184 3828 1607 4089 
Q 2031 4350 2472 4456 
L 2700 4347 
z
M 788 1366 
Q 788 1119 844 875 
Q 878 731 939 593 
Q 1000 456 1098 347 
Q 1197 238 1333 178 
Q 1469 119 1628 119 
Q 1844 119 2030 236 
Q 2216 353 2330 617 
Q 2444 881 2444 1222 
Q 2444 1550 2333 1795 
Q 2222 2041 2026 2156 
Q 1831 2272 1613 2272 
Q 1338 2272 1075 2088 
Q 888 1956 838 1811 
Q 788 1666 788 1366 
z
" transform="scale(0.015625)"/>
        <path id="Palatino-Roman-30" d="M 194 1934 
Q 194 2825 322 3309 
Q 450 3794 787 4109 
Q 1125 4425 1644 4425 
Q 1906 4425 2129 4336 
Q 2353 4247 2495 4111 
Q 2638 3975 2736 3776 
Q 2834 3578 2875 3378 
Q 2969 2922 2969 2384 
Q 2969 1684 2859 1184 
Q 2797 900 2681 664 
Q 2566 428 2406 262 
Q 2247 97 2022 -1 
Q 1797 -100 1516 -100 
Q 1175 -100 931 44 
Q 688 188 544 413 
Q 344 734 269 1148 
Q 194 1563 194 1934 
z
M 731 2116 
Q 731 1666 790 1233 
Q 850 800 978 531 
Q 1066 350 1234 234 
Q 1403 119 1613 119 
Q 1969 119 2159 416 
Q 2434 841 2434 2106 
Q 2434 2650 2376 3083 
Q 2319 3516 2184 3794 
Q 2097 3972 1939 4086 
Q 1781 4200 1559 4200 
Q 1316 4200 1123 4044 
Q 931 3888 831 3477 
Q 731 3066 731 2116 
z
" transform="scale(0.015625)"/>
       </defs>
       <use xlink:href="#Palatino-Roman-34"/>
       <use xlink:href="#Palatino-Roman-31" x="50"/>
       <use xlink:href="#Palatino-Roman-36" x="100"/>
       <use xlink:href="#Palatino-Roman-30" x="150"/>
      </g>
     </g>
    </g>
    <g id="xtick_2">
     <g id="line2d_2">
      <g>
       <use xlink:href="#mc42635e45d" x="113.461818" y="317.6125" style="stroke: #000000; stroke-width: 0.8"/>
      </g>
     </g>
     <g id="text_2">
      <!-- 4180 -->
      <g transform="translate(103.461818 331.8875) scale(0.1 -0.1)">
       <defs>
        <path id="Palatino-Roman-38" d="M 1050 2241 
Q 666 2444 505 2689 
Q 344 2934 344 3250 
Q 344 3734 703 4070 
Q 1063 4406 1650 4406 
Q 1988 4406 2252 4290 
Q 2516 4175 2650 3962 
Q 2784 3750 2784 3500 
Q 2784 3309 2701 3125 
Q 2619 2941 2434 2766 
Q 2294 2634 2019 2463 
L 2019 2434 
Q 2413 2247 2556 2141 
Q 2750 2000 2856 1797 
Q 2963 1594 2963 1328 
Q 2963 978 2764 636 
Q 2566 294 2208 105 
Q 1850 -84 1444 -84 
Q 1091 -84 798 61 
Q 506 206 353 464 
Q 200 722 200 1038 
Q 200 1416 425 1722 
Q 650 2028 1050 2213 
L 1050 2241 
z
M 1778 2541 
Q 2097 2744 2223 2944 
Q 2350 3144 2350 3416 
Q 2350 3641 2258 3823 
Q 2166 4006 1989 4100 
Q 1813 4194 1588 4194 
Q 1238 4194 1030 3998 
Q 822 3803 822 3488 
Q 822 3178 1006 3003 
Q 1191 2828 1778 2541 
z
M 1303 2128 
Q 947 1909 797 1668 
Q 647 1428 647 1088 
Q 647 800 756 581 
Q 866 363 1080 247 
Q 1294 131 1541 131 
Q 1797 131 2015 250 
Q 2234 369 2348 586 
Q 2463 803 2463 1072 
Q 2463 1303 2366 1462 
Q 2269 1622 2033 1765 
Q 1797 1909 1303 2128 
z
" transform="scale(0.015625)"/>
       </defs>
       <use xlink:href="#Palatino-Roman-34"/>
       <use xlink:href="#Palatino-Roman-31" x="50"/>
       <use xlink:href="#Palatino-Roman-38" x="100"/>
       <use xlink:href="#Palatino-Roman-30" x="150"/>
      </g>
     </g>
    </g>
    <g id="xtick_3">
     <g id="line2d_3">
      <g>
       <use xlink:href="#mc42635e45d" x="155.411846" y="317.6125" style="stroke: #000000; stroke-width: 0.8"/>
      </g>
     </g>
     <g id="text_3">
      <!-- 4200 -->
      <g transform="translate(145.411846 331.8875) scale(0.1 -0.1)">
       <defs>
        <path id="Palatino-Roman-32" d="M 106 0 
L 106 175 
Q 203 297 456 556 
L 1153 1281 
Q 1234 1366 1550 1722 
Q 1788 1994 1922 2217 
Q 2056 2441 2118 2652 
Q 2181 2863 2181 3053 
Q 2181 3378 2000 3616 
Q 1766 3931 1319 3931 
Q 1069 3931 881 3850 
Q 694 3769 630 3670 
Q 566 3572 441 3106 
L 253 3106 
Q 328 3525 359 3969 
Q 556 4156 689 4237 
Q 822 4319 1015 4367 
Q 1209 4416 1438 4416 
Q 1847 4416 2128 4277 
Q 2409 4138 2578 3863 
Q 2747 3588 2747 3241 
Q 2747 2866 2555 2502 
Q 2363 2138 1756 1534 
L 1222 1003 
Q 931 713 781 541 
L 2153 541 
Q 2566 541 2963 581 
L 2984 556 
Q 2966 438 2966 278 
Q 2966 134 2984 34 
L 2963 0 
Q 2741 13 2456 19 
Q 1819 31 1603 31 
Q 1331 31 688 19 
Q 334 13 106 0 
z
" transform="scale(0.015625)"/>
       </defs>
       <use xlink:href="#Palatino-Roman-34"/>
       <use xlink:href="#Palatino-Roman-32" x="50"/>
       <use xlink:href="#Palatino-Roman-30" x="100"/>
       <use xlink:href="#Palatino-Roman-30" x="150"/>
      </g>
     </g>
    </g>
    <g id="xtick_4">
     <g id="line2d_4">
      <g>
       <use xlink:href="#mc42635e45d" x="197.361874" y="317.6125" style="stroke: #000000; stroke-width: 0.8"/>
      </g>
     </g>
     <g id="text_4">
      <!-- 4220 -->
      <g transform="translate(187.361874 331.8875) scale(0.1 -0.1)">
       <use xlink:href="#Palatino-Roman-34"/>
       <use xlink:href="#Palatino-Roman-32" x="50"/>
       <use xlink:href="#Palatino-Roman-32" x="100"/>
       <use xlink:href="#Palatino-Roman-30" x="150"/>
      </g>
     </g>
    </g>
    <g id="xtick_5">
     <g id="line2d_5">
      <g>
       <use xlink:href="#mc42635e45d" x="239.311902" y="317.6125" style="stroke: #000000; stroke-width: 0.8"/>
      </g>
     </g>
     <g id="text_5">
      <!-- 4240 -->
      <g transform="translate(229.311902 331.8875) scale(0.1 -0.1)">
       <use xlink:href="#Palatino-Roman-34"/>
       <use xlink:href="#Palatino-Roman-32" x="50"/>
       <use xlink:href="#Palatino-Roman-34" x="100"/>
       <use xlink:href="#Palatino-Roman-30" x="150"/>
      </g>
     </g>
    </g>
    <g id="xtick_6">
     <g id="line2d_6">
      <g>
       <use xlink:href="#mc42635e45d" x="281.26193" y="317.6125" style="stroke: #000000; stroke-width: 0.8"/>
      </g>
     </g>
     <g id="text_6">
      <!-- 4260 -->
      <g transform="translate(271.26193 331.8875) scale(0.1 -0.1)">
       <use xlink:href="#Palatino-Roman-34"/>
       <use xlink:href="#Palatino-Roman-32" x="50"/>
       <use xlink:href="#Palatino-Roman-36" x="100"/>
       <use xlink:href="#Palatino-Roman-30" x="150"/>
      </g>
     </g>
    </g>
    <g id="xtick_7">
     <g id="line2d_7">
      <g>
       <use xlink:href="#mc42635e45d" x="323.211958" y="317.6125" style="stroke: #000000; stroke-width: 0.8"/>
      </g>
     </g>
     <g id="text_7">
      <!-- 4280 -->
      <g transform="translate(313.211958 331.8875) scale(0.1 -0.1)">
       <use xlink:href="#Palatino-Roman-34"/>
       <use xlink:href="#Palatino-Roman-32" x="50"/>
       <use xlink:href="#Palatino-Roman-38" x="100"/>
       <use xlink:href="#Palatino-Roman-30" x="150"/>
      </g>
     </g>
    </g>
    <g id="text_8">
     <!-- Acceleration (z-axis) -->
     <g transform="translate(154.283594 345.917188) scale(0.1 -0.1)">
      <defs>
       <path id="Palatino-Roman-41" d="M 109 0 
L 109 213 
Q 356 216 417 233 
Q 478 250 529 298 
Q 581 347 678 550 
Q 734 666 1084 1428 
L 1866 3191 
Q 1994 3481 2413 4484 
L 2616 4484 
L 3950 1350 
Q 4275 588 4381 394 
Q 4441 284 4511 250 
Q 4581 216 4828 213 
L 4828 0 
Q 4341 31 4147 31 
L 3141 0 
L 3141 213 
Q 3491 219 3566 234 
Q 3641 250 3667 279 
Q 3694 309 3694 353 
Q 3694 422 3650 531 
L 3266 1488 
L 1456 1488 
L 1116 684 
Q 1025 469 1025 369 
Q 1025 325 1050 297 
Q 1084 256 1156 241 
Q 1272 216 1563 213 
L 1563 0 
Q 1034 28 772 28 
Q 469 28 109 0 
z
M 1563 1753 
L 3141 1753 
L 2359 3638 
L 1563 1753 
z
" transform="scale(0.015625)"/>
       <path id="Palatino-Roman-63" d="M 2713 359 
L 2588 150 
Q 2372 34 2161 -19 
Q 1950 -72 1684 -72 
Q 1028 -72 639 323 
Q 250 719 250 1409 
Q 250 1775 354 2045 
Q 459 2316 613 2463 
Q 716 2566 1005 2730 
Q 1294 2894 1409 2941 
Q 1622 3031 1919 3031 
Q 2200 3031 2425 2972 
Q 2569 2934 2713 2847 
Q 2675 2606 2659 2482 
Q 2644 2359 2619 2034 
L 2441 2034 
Q 2422 2338 2403 2413 
Q 2391 2459 2347 2497 
Q 2234 2584 2057 2648 
Q 1881 2713 1672 2713 
Q 1409 2713 1217 2605 
Q 1025 2497 919 2262 
Q 813 2028 813 1681 
Q 813 1256 963 912 
Q 1113 569 1370 411 
Q 1628 253 1947 253 
Q 2106 253 2257 292 
Q 2409 331 2647 441 
L 2713 359 
z
" transform="scale(0.015625)"/>
       <path id="Palatino-Roman-65" d="M 2763 484 
L 2663 259 
Q 2447 125 2347 81 
Q 2200 16 2011 -29 
Q 1822 -75 1613 -75 
Q 1200 -75 865 97 
Q 531 269 345 611 
Q 159 953 159 1413 
Q 159 1772 257 2061 
Q 356 2350 481 2488 
Q 572 2588 762 2717 
Q 953 2847 1141 2922 
Q 1388 3025 1675 3025 
Q 2025 3025 2308 2865 
Q 2591 2706 2722 2431 
Q 2853 2156 2853 1809 
Q 2853 1722 2841 1597 
Q 2616 1553 2438 1541 
Q 2100 1516 1763 1516 
L 759 1516 
Q 766 1069 914 792 
Q 1063 516 1323 384 
Q 1584 253 1866 253 
Q 2056 253 2245 314 
Q 2434 375 2713 538 
L 2763 484 
z
M 759 1763 
Q 847 1753 1091 1744 
Q 1556 1728 1731 1728 
Q 2147 1728 2278 1744 
Q 2281 1819 2281 1859 
Q 2281 2353 2081 2584 
Q 1881 2816 1547 2816 
Q 1194 2816 978 2562 
Q 763 2309 759 1763 
z
" transform="scale(0.015625)"/>
       <path id="Palatino-Roman-6c" d="M 159 0 
L 159 178 
L 453 181 
Q 522 184 558 204 
Q 594 225 613 256 
Q 647 319 653 478 
Q 656 519 675 1375 
L 675 2672 
Q 675 3194 656 3750 
Q 644 4125 622 4169 
Q 606 4200 572 4213 
Q 525 4234 141 4234 
L 141 4419 
Q 847 4506 1122 4638 
Q 1163 4656 1184 4656 
Q 1206 4656 1218 4642 
Q 1231 4628 1231 4603 
Q 1231 4581 1225 4541 
L 1222 4438 
Q 1206 3878 1203 3484 
L 1197 2997 
L 1197 1375 
Q 1213 563 1216 497 
Q 1219 341 1253 269 
Q 1266 241 1291 220 
Q 1316 200 1366 188 
Q 1388 184 1713 178 
L 1713 0 
Q 1288 25 966 25 
Q 659 25 159 0 
z
" transform="scale(0.015625)"/>
       <path id="Palatino-Roman-72" d="M 147 0 
L 147 178 
Q 500 184 528 191 
Q 581 200 607 220 
Q 634 241 650 278 
Q 681 350 688 503 
Q 706 1338 706 1375 
L 706 1747 
Q 706 1997 697 2284 
Q 691 2469 670 2503 
Q 650 2538 598 2555 
Q 547 2572 191 2569 
L 191 2747 
Q 822 2834 1113 2975 
Q 1175 3006 1197 3006 
Q 1219 3006 1231 2990 
Q 1244 2975 1244 2944 
Q 1244 2922 1241 2894 
Q 1225 2703 1222 2303 
Q 1363 2466 1481 2625 
Q 1600 2784 1653 2831 
Q 1747 2913 1869 2961 
Q 1991 3009 2122 3009 
Q 2253 3009 2381 2953 
L 2400 2909 
Q 2353 2494 2347 2178 
L 2206 2178 
Q 2134 2328 2039 2397 
Q 1944 2466 1800 2466 
Q 1559 2466 1390 2267 
Q 1222 2069 1222 1672 
L 1222 1350 
Q 1222 1144 1238 597 
Q 1241 403 1253 350 
Q 1266 297 1286 273 
Q 1306 250 1353 234 
Q 1447 206 1859 178 
L 1859 0 
Q 1309 22 922 22 
Q 522 22 147 0 
z
" transform="scale(0.015625)"/>
       <path id="Palatino-Roman-61" d="M 678 2141 
L 513 2184 
Q 516 2256 516 2381 
Q 516 2513 513 2591 
Q 909 2850 1163 2941 
Q 1356 3006 1597 3006 
Q 1953 3006 2197 2872 
Q 2441 2738 2559 2488 
Q 2641 2313 2641 2009 
L 2628 1438 
L 2628 506 
Q 2628 356 2653 291 
Q 2672 244 2713 222 
Q 2744 203 2844 197 
L 3047 178 
L 3047 0 
Q 2791 22 2597 22 
Q 2409 22 2097 0 
L 2113 550 
Q 1475 69 1356 8 
Q 1238 -53 1056 -53 
Q 678 -53 467 148 
Q 256 350 256 684 
Q 256 900 329 1078 
Q 403 1256 506 1361 
Q 609 1466 716 1516 
Q 897 1600 1305 1697 
Q 1713 1794 2113 1841 
Q 2116 2138 2041 2303 
Q 1966 2469 1787 2575 
Q 1609 2681 1353 2681 
Q 1169 2681 1030 2631 
Q 891 2581 859 2547 
L 803 2434 
Q 719 2247 678 2141 
z
M 2113 1650 
Q 1706 1581 1418 1497 
Q 1131 1413 1013 1322 
Q 941 1269 888 1163 
Q 806 1006 806 816 
Q 806 584 934 454 
Q 1063 325 1291 325 
Q 1500 325 1704 445 
Q 1909 566 2113 806 
L 2113 1650 
z
" transform="scale(0.015625)"/>
       <path id="Palatino-Roman-74" d="M 144 2450 
L 144 2581 
Q 456 2700 641 2794 
Q 641 3538 622 3744 
Q 947 3856 1150 3984 
L 1225 3922 
Q 1191 3663 1150 2778 
Q 1400 2775 1450 2775 
Q 1478 2775 1772 2781 
Q 1934 2784 2016 2794 
L 2038 2772 
L 1972 2481 
Q 1775 2484 1609 2484 
Q 1444 2484 1150 2481 
L 1131 1209 
Q 1122 744 1137 653 
Q 1153 563 1197 495 
Q 1241 428 1311 387 
Q 1381 347 1550 325 
Q 1678 325 1758 336 
Q 1838 347 1959 391 
L 1997 269 
Q 1850 153 1713 28 
Q 1594 -16 1491 -30 
Q 1388 -44 1253 -44 
Q 1088 -44 989 -6 
Q 891 31 809 98 
Q 728 166 675 269 
Q 622 372 606 594 
Q 609 806 619 1059 
Q 622 1109 622 1169 
L 622 2466 
L 494 2466 
Q 338 2466 144 2450 
z
" transform="scale(0.015625)"/>
       <path id="Palatino-Roman-69" d="M 903 4400 
Q 1050 4400 1151 4297 
Q 1253 4194 1253 4047 
Q 1253 3903 1150 3800 
Q 1047 3697 903 3697 
Q 756 3697 653 3800 
Q 550 3903 550 4047 
Q 550 4194 653 4297 
Q 756 4400 903 4400 
z
M 141 2572 
L 141 2750 
Q 747 2819 1159 3013 
L 1228 2963 
Q 1203 2297 1203 1944 
L 1203 1375 
Q 1219 563 1222 497 
Q 1225 341 1256 269 
Q 1272 241 1297 220 
Q 1322 200 1372 188 
Q 1391 184 1719 178 
L 1719 0 
Q 1244 22 959 22 
Q 709 22 141 0 
L 141 178 
L 438 181 
Q 503 184 539 204 
Q 575 225 594 256 
Q 628 319 638 478 
Q 638 519 656 1375 
L 656 1925 
Q 656 2391 625 2478 
Q 606 2525 557 2548 
Q 509 2572 141 2572 
z
" transform="scale(0.015625)"/>
       <path id="Palatino-Roman-6f" d="M 213 1438 
Q 213 2138 658 2580 
Q 1103 3022 1800 3022 
Q 2456 3022 2868 2609 
Q 3281 2197 3281 1544 
Q 3281 1088 3068 709 
Q 2856 331 2468 117 
Q 2081 -97 1616 -97 
Q 1253 -97 1001 25 
Q 750 147 594 331 
Q 438 516 356 709 
Q 213 1050 213 1438 
z
M 803 1669 
Q 803 1284 931 887 
Q 1059 491 1301 308 
Q 1544 125 1828 125 
Q 2191 125 2434 412 
Q 2678 700 2678 1297 
Q 2678 1794 2533 2155 
Q 2388 2516 2163 2664 
Q 1938 2813 1666 2813 
Q 1281 2813 1042 2534 
Q 803 2256 803 1669 
z
" transform="scale(0.015625)"/>
       <path id="Palatino-Roman-6e" d="M 88 0 
L 88 178 
L 384 181 
Q 450 184 486 204 
Q 522 225 541 256 
Q 575 319 584 478 
Q 584 519 603 1375 
L 603 1747 
Q 603 1997 594 2284 
Q 584 2469 564 2503 
Q 544 2538 494 2555 
Q 444 2572 88 2569 
L 88 2747 
Q 719 2834 1009 2975 
Q 1072 3006 1094 3006 
Q 1116 3006 1128 2990 
Q 1141 2975 1141 2944 
Q 1141 2922 1138 2894 
Q 1128 2781 1119 2419 
L 1700 2916 
Q 1956 3009 2184 3009 
Q 2438 3009 2664 2906 
Q 2891 2803 3005 2647 
Q 3119 2491 3156 2253 
Q 3178 2113 3178 1469 
L 3178 916 
Q 3178 509 3200 363 
Q 3216 269 3248 233 
Q 3281 197 3350 188 
L 3684 178 
L 3684 0 
Q 3378 22 3175 22 
Q 3000 22 2594 0 
Q 2638 772 2638 975 
L 2638 1500 
Q 2638 1991 2600 2144 
Q 2547 2353 2359 2481 
Q 2172 2609 1906 2609 
Q 1672 2609 1478 2498 
Q 1284 2388 1201 2242 
Q 1119 2097 1119 1753 
L 1119 1375 
Q 1138 563 1138 497 
Q 1144 341 1175 269 
Q 1188 241 1213 220 
Q 1238 200 1291 188 
Q 1309 184 1634 178 
L 1634 0 
Q 1253 22 944 22 
Q 681 22 88 0 
z
" transform="scale(0.015625)"/>
       <path id="Palatino-Roman-20" transform="scale(0.015625)"/>
       <path id="Palatino-Roman-28" d="M 1763 -1063 
Q 1097 -500 737 275 
Q 378 1050 378 1969 
Q 378 2506 495 2947 
Q 613 3388 809 3745 
Q 1006 4103 1275 4428 
Q 1544 4753 1791 4931 
L 1916 4772 
Q 1416 4231 1170 3554 
Q 925 2878 925 1991 
Q 925 1028 1154 375 
Q 1384 -278 1916 -925 
L 1763 -1063 
z
" transform="scale(0.015625)"/>
       <path id="Palatino-Roman-7a" d="M 147 0 
L 113 144 
Q 434 488 613 700 
Q 1025 1197 1722 2069 
Q 1809 2178 2169 2684 
L 1444 2684 
Q 1294 2684 963 2666 
Q 759 2656 716 2634 
Q 694 2625 681 2603 
Q 666 2578 638 2450 
L 575 2088 
L 400 2088 
Q 431 2628 431 2688 
Q 431 2763 425 2897 
L 450 2919 
Q 1609 2897 2313 2897 
Q 2650 2897 2909 2919 
L 2909 2753 
Q 2697 2531 2172 1863 
Q 1166 594 909 238 
L 1128 238 
Q 1391 238 1867 250 
Q 2344 263 2559 309 
Q 2628 325 2644 341 
Q 2656 350 2666 381 
Q 2728 578 2784 909 
L 2978 909 
Q 2931 544 2922 469 
Q 2916 422 2888 34 
Q 2706 0 2431 0 
L 1075 25 
L 147 0 
z
" transform="scale(0.015625)"/>
       <path id="Palatino-Roman-2d" d="M 141 1369 
L 141 1413 
L 281 1831 
L 1953 1831 
L 1953 1784 
L 1803 1369 
L 141 1369 
z
" transform="scale(0.015625)"/>
       <path id="Palatino-Roman-78" d="M 113 0 
L 113 178 
Q 263 178 347 222 
Q 459 284 650 506 
L 1381 1403 
L 1116 1797 
Q 903 2116 701 2366 
Q 500 2616 369 2694 
Q 319 2722 250 2722 
Q 222 2722 150 2716 
L 113 2894 
Q 475 2934 847 3016 
Q 966 2906 1066 2784 
Q 1238 2563 1484 2181 
L 1716 1816 
L 1909 2066 
Q 2138 2356 2553 2956 
Q 2716 2947 2797 2947 
Q 2872 2947 3031 2956 
L 3031 2781 
Q 2894 2778 2825 2731 
Q 2681 2634 2353 2231 
L 2053 1872 
L 1859 1619 
L 1975 1444 
Q 2050 1334 2376 882 
Q 2703 431 2838 288 
Q 2906 216 2953 197 
Q 3000 178 3138 178 
L 3138 0 
Q 2919 13 2744 13 
Q 2559 13 2356 0 
Q 2156 253 1997 488 
L 1522 1200 
Q 1175 797 659 0 
Q 534 13 384 13 
Q 238 13 113 0 
z
" transform="scale(0.015625)"/>
       <path id="Palatino-Roman-73" d="M 291 944 
L 478 944 
Q 481 763 497 656 
Q 513 550 550 448 
Q 588 347 666 276 
Q 744 206 836 167 
Q 928 128 1023 115 
Q 1119 103 1313 103 
Q 1631 103 1836 272 
Q 2041 441 2041 734 
Q 2041 866 1977 966 
Q 1913 1066 1792 1122 
Q 1672 1178 1275 1268 
Q 878 1359 763 1400 
Q 588 1466 484 1559 
Q 381 1653 320 1797 
Q 259 1941 259 2109 
Q 259 2356 389 2564 
Q 519 2772 797 2901 
Q 1075 3031 1403 3031 
Q 1600 3031 1859 2976 
Q 2119 2922 2281 2841 
Q 2259 2494 2250 2134 
L 2072 2134 
Q 2056 2363 2036 2434 
Q 2016 2506 1981 2562 
Q 1947 2619 1862 2683 
Q 1778 2747 1645 2797 
Q 1513 2847 1319 2847 
Q 1044 2847 876 2684 
Q 709 2522 709 2303 
Q 709 2181 757 2093 
Q 806 2006 887 1951 
Q 969 1897 1116 1853 
L 1634 1725 
Q 2028 1625 2176 1553 
Q 2325 1481 2415 1329 
Q 2506 1178 2506 966 
Q 2506 544 2157 230 
Q 1809 -84 1225 -84 
Q 956 -84 509 -3 
Q 263 44 244 63 
Q 231 72 231 94 
Q 231 116 238 147 
Q 266 281 275 409 
Q 284 538 291 944 
z
" transform="scale(0.015625)"/>
       <path id="Palatino-Roman-29" d="M 506 -1063 
L 378 -903 
Q 878 -363 1123 315 
Q 1369 994 1369 1881 
Q 1369 2844 1139 3497 
Q 909 4150 378 4797 
L 531 4931 
Q 1197 4369 1556 3594 
Q 1916 2819 1916 1900 
Q 1916 1366 1798 925 
Q 1681 484 1484 125 
Q 1288 -234 1019 -557 
Q 750 -881 506 -1063 
z
" transform="scale(0.015625)"/>
      </defs>
      <use xlink:href="#Palatino-Roman-41"/>
      <use xlink:href="#Palatino-Roman-63" x="77.783203"/>
      <use xlink:href="#Palatino-Roman-63" x="122.167969"/>
      <use xlink:href="#Palatino-Roman-65" x="166.552734"/>
      <use xlink:href="#Palatino-Roman-6c" x="214.453125"/>
      <use xlink:href="#Palatino-Roman-65" x="243.554688"/>
      <use xlink:href="#Palatino-Roman-72" x="291.455078"/>
      <use xlink:href="#Palatino-Roman-61" x="330.957031"/>
      <use xlink:href="#Palatino-Roman-74" x="380.957031"/>
      <use xlink:href="#Palatino-Roman-69" x="413.574219"/>
      <use xlink:href="#Palatino-Roman-6f" x="442.675781"/>
      <use xlink:href="#Palatino-Roman-6e" x="497.265625"/>
      <use xlink:href="#Palatino-Roman-20" x="555.46875"/>
      <use xlink:href="#Palatino-Roman-28" x="580.46875"/>
      <use xlink:href="#Palatino-Roman-7a" x="613.769531"/>
      <use xlink:href="#Palatino-Roman-2d" x="663.769531"/>
      <use xlink:href="#Palatino-Roman-61" x="697.070312"/>
      <use xlink:href="#Palatino-Roman-78" x="747.070312"/>
      <use xlink:href="#Palatino-Roman-69" x="798.681641"/>
      <use xlink:href="#Palatino-Roman-73" x="827.783203"/>
      <use xlink:href="#Palatino-Roman-29" x="870.166016"/>
     </g>
    </g>
   </g>
   <g id="matplotlib.axis_2">
    <g id="ytick_1">
     <g id="line2d_8">
      <defs>
       <path id="m31d0a54d98" d="M 0 0 
L -3.5 0 
" style="stroke: #000000; stroke-width: 0.8"/>
      </defs>
      <g>
       <use xlink:href="#m31d0a54d98" x="49.71875" y="317.6125" style="stroke: #000000; stroke-width: 0.8"/>
      </g>
     </g>
     <g id="text_9">
      <!-- 0.00 -->
      <g transform="translate(25.21875 321.25) scale(0.1 -0.1)">
       <defs>
        <path id="Palatino-Roman-2e" d="M 800 716 
Q 956 716 1064 606 
Q 1172 497 1172 341 
Q 1172 188 1062 78 
Q 953 -31 800 -31 
Q 644 -31 534 78 
Q 425 188 425 341 
Q 425 497 534 606 
Q 644 716 800 716 
z
" transform="scale(0.015625)"/>
       </defs>
       <use xlink:href="#Palatino-Roman-30"/>
       <use xlink:href="#Palatino-Roman-2e" x="50"/>
       <use xlink:href="#Palatino-Roman-30" x="75"/>
       <use xlink:href="#Palatino-Roman-30" x="125"/>
      </g>
     </g>
    </g>
    <g id="ytick_2">
     <g id="line2d_9">
      <g>
       <use xlink:href="#m31d0a54d98" x="49.71875" y="262.604678" style="stroke: #000000; stroke-width: 0.8"/>
      </g>
     </g>
     <g id="text_10">
      <!-- 0.01 -->
      <g transform="translate(25.21875 266.242178) scale(0.1 -0.1)">
       <use xlink:href="#Palatino-Roman-30"/>
       <use xlink:href="#Palatino-Roman-2e" x="50"/>
       <use xlink:href="#Palatino-Roman-30" x="75"/>
       <use xlink:href="#Palatino-Roman-31" x="125"/>
      </g>
     </g>
    </g>
    <g id="ytick_3">
     <g id="line2d_10">
      <g>
       <use xlink:href="#m31d0a54d98" x="49.71875" y="207.596855" style="stroke: #000000; stroke-width: 0.8"/>
      </g>
     </g>
     <g id="text_11">
      <!-- 0.02 -->
      <g transform="translate(25.21875 211.234355) scale(0.1 -0.1)">
       <use xlink:href="#Palatino-Roman-30"/>
       <use xlink:href="#Palatino-Roman-2e" x="50"/>
       <use xlink:href="#Palatino-Roman-30" x="75"/>
       <use xlink:href="#Palatino-Roman-32" x="125"/>
      </g>
     </g>
    </g>
    <g id="ytick_4">
     <g id="line2d_11">
      <g>
       <use xlink:href="#m31d0a54d98" x="49.71875" y="152.589033" style="stroke: #000000; stroke-width: 0.8"/>
      </g>
     </g>
     <g id="text_12">
      <!-- 0.03 -->
      <g transform="translate(25.21875 156.226533) scale(0.1 -0.1)">
       <defs>
        <path id="Palatino-Roman-33" d="M 325 97 
Q 281 363 247 506 
Q 225 597 106 1022 
L 278 1088 
Q 475 563 729 377 
Q 984 191 1394 191 
Q 1694 191 1898 309 
Q 2103 428 2231 687 
Q 2359 947 2359 1272 
Q 2359 1706 2137 1939 
Q 1916 2172 1541 2172 
Q 1416 2172 1308 2147 
Q 1200 2122 988 2034 
L 950 2066 
L 1019 2406 
Q 1269 2391 1353 2391 
Q 1734 2391 1942 2658 
Q 2150 2925 2150 3263 
Q 2150 3566 1929 3778 
Q 1709 3991 1372 3991 
Q 1169 3991 981 3909 
Q 794 3828 650 3691 
Q 594 3572 472 3244 
L 278 3244 
L 472 3994 
Q 681 4213 866 4300 
Q 1169 4438 1528 4438 
Q 2056 4438 2364 4159 
Q 2672 3881 2672 3484 
Q 2672 3216 2512 2955 
Q 2353 2694 1972 2422 
Q 2325 2375 2529 2261 
Q 2734 2147 2843 1939 
Q 2953 1731 2953 1475 
Q 2953 1103 2718 743 
Q 2484 384 2059 150 
Q 1634 -84 1138 -84 
Q 919 -84 737 -43 
Q 556 -3 325 97 
z
" transform="scale(0.015625)"/>
       </defs>
       <use xlink:href="#Palatino-Roman-30"/>
       <use xlink:href="#Palatino-Roman-2e" x="50"/>
       <use xlink:href="#Palatino-Roman-30" x="75"/>
       <use xlink:href="#Palatino-Roman-33" x="125"/>
      </g>
     </g>
    </g>
    <g id="ytick_5">
     <g id="line2d_12">
      <g>
       <use xlink:href="#m31d0a54d98" x="49.71875" y="97.58121" style="stroke: #000000; stroke-width: 0.8"/>
      </g>
     </g>
     <g id="text_13">
      <!-- 0.04 -->
      <g transform="translate(25.21875 101.21871) scale(0.1 -0.1)">
       <use xlink:href="#Palatino-Roman-30"/>
       <use xlink:href="#Palatino-Roman-2e" x="50"/>
       <use xlink:href="#Palatino-Roman-30" x="75"/>
       <use xlink:href="#Palatino-Roman-34" x="125"/>
      </g>
     </g>
    </g>
    <g id="ytick_6">
     <g id="line2d_13">
      <g>
       <use xlink:href="#m31d0a54d98" x="49.71875" y="42.573388" style="stroke: #000000; stroke-width: 0.8"/>
      </g>
     </g>
     <g id="text_14">
      <!-- 0.05 -->
      <g transform="translate(25.21875 46.210888) scale(0.1 -0.1)">
       <defs>
        <path id="Palatino-Roman-35" d="M 413 69 
Q 341 281 297 394 
L 91 903 
L 244 994 
Q 525 481 590 420 
Q 656 359 884 278 
Q 1113 197 1350 197 
Q 1663 197 1898 328 
Q 2134 459 2264 720 
Q 2394 981 2394 1350 
Q 2394 1894 2098 2156 
Q 1803 2419 1400 2419 
Q 1163 2419 969 2328 
Q 822 2256 619 2034 
L 491 2072 
L 528 2844 
Q 534 3019 534 3128 
L 534 3684 
Q 534 3934 519 4184 
Q 513 4281 509 4341 
L 550 4372 
Q 1059 4334 1619 4334 
Q 2094 4334 2756 4372 
L 2772 4341 
Q 2750 4181 2750 4053 
Q 2750 3991 2756 3838 
L 2725 3819 
Q 2291 3847 1425 3847 
Q 1106 3847 822 3838 
Q 775 3406 759 2538 
Q 1009 2719 1209 2789 
Q 1409 2859 1653 2859 
Q 2016 2859 2317 2704 
Q 2619 2550 2781 2259 
Q 2944 1969 2944 1622 
Q 2944 1081 2575 616 
Q 2019 -91 1081 -91 
Q 875 -91 729 -55 
Q 584 -19 413 69 
z
" transform="scale(0.015625)"/>
       </defs>
       <use xlink:href="#Palatino-Roman-30"/>
       <use xlink:href="#Palatino-Roman-2e" x="50"/>
       <use xlink:href="#Palatino-Roman-30" x="75"/>
       <use xlink:href="#Palatino-Roman-35" x="125"/>
      </g>
     </g>
    </g>
    <g id="text_15">
     <!-- Density -->
     <g transform="translate(18.445313 181.367969) rotate(-90) scale(0.1 -0.1)">
      <defs>
       <path id="Palatino-Roman-44" d="M 281 0 
L 281 150 
Q 463 253 584 338 
Q 603 550 616 928 
Q 638 1572 638 1822 
L 638 3097 
Q 638 3403 619 3816 
Q 606 4075 575 4138 
Q 553 4178 509 4197 
Q 406 4241 81 4244 
L 81 4441 
Q 538 4422 888 4422 
Q 1156 4422 1620 4434 
Q 2084 4447 2341 4447 
Q 3106 4447 3572 4251 
Q 4038 4056 4363 3597 
Q 4688 3138 4688 2475 
Q 4688 2000 4534 1584 
Q 4381 1169 4118 858 
Q 3856 547 3556 365 
Q 3256 184 2926 92 
Q 2597 0 2022 0 
Q 1831 0 1506 13 
Q 1081 25 950 25 
Q 759 25 281 0 
z
M 1250 341 
Q 1594 281 1975 281 
Q 2369 281 2670 350 
Q 2972 419 3186 544 
Q 3400 669 3600 912 
Q 3800 1156 3908 1536 
Q 4016 1916 4016 2322 
Q 4016 2903 3808 3320 
Q 3600 3738 3181 3959 
Q 2763 4181 2031 4181 
Q 1647 4181 1250 4122 
Q 1241 3969 1234 3578 
L 1222 3125 
L 1222 1878 
L 1231 909 
Q 1234 688 1250 341 
z
" transform="scale(0.015625)"/>
       <path id="Palatino-Roman-79" d="M 141 -1672 
L 300 -1191 
L 375 -1191 
Q 434 -1241 476 -1270 
Q 519 -1300 567 -1315 
Q 616 -1331 709 -1331 
Q 806 -1331 898 -1289 
Q 991 -1247 1070 -1156 
Q 1150 -1066 1259 -844 
Q 1425 -509 1556 -163 
Q 1456 119 1316 469 
L 819 1700 
Q 597 2250 456 2544 
Q 400 2659 336 2698 
Q 272 2738 50 2763 
L 50 2938 
Q 438 2916 816 2916 
Q 1184 2916 1525 2938 
L 1525 2763 
Q 1203 2741 1156 2722 
Q 1075 2691 1075 2609 
Q 1075 2559 1128 2403 
Q 1250 2019 1359 1747 
L 1556 1259 
Q 1734 822 1856 550 
L 2022 919 
Q 2119 1138 2362 1750 
Q 2606 2363 2647 2506 
Q 2659 2556 2659 2594 
Q 2659 2653 2611 2686 
Q 2563 2719 2234 2750 
L 2234 2938 
Q 2597 2916 2875 2916 
Q 3156 2916 3431 2938 
L 3400 2750 
Q 3241 2744 3153 2681 
Q 3066 2619 2889 2261 
Q 2713 1903 2234 853 
L 1513 -834 
Q 1338 -1244 1209 -1419 
Q 1081 -1594 903 -1684 
Q 725 -1775 513 -1775 
Q 409 -1775 326 -1751 
Q 244 -1728 141 -1672 
z
" transform="scale(0.015625)"/>
      </defs>
      <use xlink:href="#Palatino-Roman-44"/>
      <use xlink:href="#Palatino-Roman-65" x="77.392578"/>
      <use xlink:href="#Palatino-Roman-6e" x="125.292969"/>
      <use xlink:href="#Palatino-Roman-73" x="183.496094"/>
      <use xlink:href="#Palatino-Roman-69" x="225.878906"/>
      <use xlink:href="#Palatino-Roman-74" x="254.980469"/>
      <use xlink:href="#Palatino-Roman-79" x="287.597656"/>
     </g>
    </g>
   </g>
   <g id="line2d_14">
    <path d="M 75.706792 317.39056 
L 81.925515 317.389568 
L 88.144238 317.351534 
L 95.606705 317.313467 
L 99.337939 317.279838 
L 101.825428 317.113375 
L 104.312917 316.776404 
L 109.287895 315.789437 
L 114.262873 314.894048 
L 117.994107 314.506877 
L 122.969085 314.091461 
L 126.700319 313.446253 
L 130.431553 312.638835 
L 131.675297 312.269048 
L 132.919042 311.776992 
L 134.162786 311.117734 
L 135.406531 310.263813 
L 136.650275 309.213995 
L 139.137764 306.648563 
L 149.087721 295.153672 
L 154.062699 288.628318 
L 155.306444 287.234541 
L 157.793933 284.891301 
L 159.037677 283.745924 
L 160.281422 282.422641 
L 161.525166 280.787852 
L 162.768911 278.760749 
L 164.012655 276.327334 
L 166.500144 270.469689 
L 170.231378 260.569624 
L 172.718867 253.67309 
L 173.962612 249.909776 
L 175.206356 245.705796 
L 176.450101 240.863117 
L 177.693845 235.205502 
L 178.93759 228.611915 
L 180.181334 221.043292 
L 182.668824 203.343577 
L 186.400057 174.553455 
L 187.643802 165.893747 
L 188.887546 158.210934 
L 190.131291 151.569716 
L 191.375035 145.854533 
L 192.61878 140.843133 
L 195.106269 132.174222 
L 196.350014 128.44818 
L 197.593758 125.304498 
L 198.837503 122.950642 
L 200.081247 121.549209 
L 201.324992 121.153902 
L 202.568736 121.690322 
L 203.812481 122.982223 
L 205.056225 124.809019 
L 207.543715 129.34534 
L 210.031204 134.680593 
L 211.274948 137.790872 
L 212.518693 141.330145 
L 213.762437 145.366506 
L 215.006182 149.911389 
L 217.493671 160.255639 
L 222.468649 182.115224 
L 232.418606 223.1851 
L 236.149839 238.751323 
L 238.637328 248.356744 
L 242.368562 261.729008 
L 246.099796 274.431587 
L 248.587285 281.99105 
L 249.831029 285.227809 
L 251.074774 288.028372 
L 252.318518 290.398883 
L 253.562263 292.395237 
L 256.049752 295.640876 
L 267.243453 308.512264 
L 268.487197 309.645599 
L 269.730942 310.627438 
L 270.974687 311.455723 
L 273.462176 312.713045 
L 275.949665 313.616211 
L 279.680898 314.686418 
L 283.412132 315.52904 
L 288.38711 316.338821 
L 292.118344 316.780295 
L 295.849578 317.01335 
L 312.018257 317.426922 
L 323.211958 317.456436 
L 323.211958 317.456436 
" clip-path="url(#p7d16c60e6f)" style="fill: none; stroke: #1f77b4; stroke-width: 4; stroke-linecap: square"/>
   </g>
   <g id="line2d_15">
    <path d="M 203.967147 317.6125 
L 203.967147 10.8 
" clip-path="url(#p7d16c60e6f)" style="fill: none; stroke: #ff0000; stroke-width: 2; stroke-linecap: square"/>
   </g>
   <g id="line2d_16">
    <path d="M 177.906731 317.6125 
L 177.906731 10.8 
" clip-path="url(#p7d16c60e6f)" style="fill: none; stroke-dasharray: 5.55,2.4; stroke-dashoffset: 0; stroke: #ff0000; stroke-width: 1.5"/>
   </g>
   <g id="line2d_17">
    <path d="M 230.027563 317.6125 
L 230.027563 10.8 
" clip-path="url(#p7d16c60e6f)" style="fill: none; stroke-dasharray: 5.55,2.4; stroke-dashoffset: 0; stroke: #ff0000; stroke-width: 1.5"/>
   </g>
   <g id="line2d_18">
    <path d="M 63.331534 317.612416 
L 66.081591 317.612353 
L 68.831649 317.612244 
L 71.581706 317.61206 
L 74.331764 317.611752 
L 77.081821 317.611243 
L 79.831878 317.61041 
L 82.581936 317.609065 
L 85.331993 317.606915 
L 88.082051 317.603521 
L 90.832108 317.598225 
L 93.582165 317.590055 
L 96.332223 317.5776 
L 99.08228 317.558835 
L 101.832338 317.530894 
L 104.582395 317.489779 
L 107.332452 317.429995 
L 110.08251 317.344091 
L 112.832567 317.222123 
L 115.582625 317.051021 
L 118.332682 316.813867 
L 121.082739 316.489125 
L 123.832797 316.049835 
L 126.582854 315.462835 
L 129.332912 314.688082 
L 132.082969 313.678158 
L 134.833026 312.378082 
L 137.583084 310.725525 
L 140.333141 308.651583 
L 143.083198 306.082212 
L 145.833256 302.940421 
L 148.583313 299.149302 
L 151.333371 294.635887 
L 154.083428 289.33579 
L 156.833485 283.19847 
L 159.583543 276.192892 
L 162.3336 268.31326 
L 165.083658 259.584414 
L 167.833715 250.066433 
L 170.583772 239.857974 
L 173.33383 229.097866 
L 176.083887 217.964574 
L 178.833945 206.673245 
L 181.584002 195.470223 
L 184.334059 184.625076 
L 187.084117 174.420445 
L 189.834174 165.140162 
L 192.584232 157.056333 
L 195.334289 150.416181 
L 198.084346 145.42952 
L 200.834404 142.257756 
L 203.584461 141.005216 
L 206.334518 141.713451 
L 209.084576 144.358942 
L 211.834633 148.854402 
L 214.584691 155.053555 
L 217.334748 162.75904 
L 220.084805 171.732839 
L 222.834863 181.708461 
L 225.58492 192.404011 
L 228.334978 203.535267 
L 231.085035 214.827919 
L 233.835092 226.028259 
L 236.58515 236.911796 
L 239.335207 247.289452 
L 242.085265 257.011215 
L 244.835322 265.967322 
L 247.585379 274.087226 
L 250.335437 281.336697 
L 253.085494 287.713522 
L 255.835552 293.24228 
L 258.585609 297.968662 
L 261.335666 301.953753 
L 264.085724 305.268626 
L 266.835781 307.989516 
L 269.585838 310.193732 
L 272.335896 311.956393 
L 275.085953 313.348008 
L 277.836011 314.43284 
L 280.586068 315.267959 
L 283.336125 315.902883 
L 286.086183 316.379669 
L 288.83624 316.733331 
L 291.586298 316.992481 
L 294.336355 317.180085 
L 297.086412 317.314263 
L 299.83647 317.409084 
L 302.586527 317.475294 
L 305.336585 317.520978 
L 308.086642 317.552128 
L 310.836699 317.573116 
L 313.586757 317.587093 
L 316.336814 317.596291 
L 319.086872 317.602273 
L 321.836929 317.606119 
L 324.586986 317.608563 
L 327.337044 317.610098 
L 330.087101 317.61105 
L 332.837159 317.611635 
L 335.587216 317.611989 
" clip-path="url(#p7d16c60e6f)" style="fill: none; stroke: #000000; stroke-width: 2; stroke-linecap: square"/>
   </g>
   <g id="patch_87">
    <path d="M 49.71875 317.6125 
L 49.71875 10.8 
" style="fill: none; stroke: #000000; stroke-width: 0.8; stroke-linejoin: miter; stroke-linecap: square"/>
   </g>
   <g id="patch_88">
    <path d="M 49.71875 317.6125 
L 349.2 317.6125 
" style="fill: none; stroke: #000000; stroke-width: 0.8; stroke-linejoin: miter; stroke-linecap: square"/>
   </g>
   <g id="legend_1">
    <g id="patch_89">
     <path d="M 259.320312 79.390625 
L 342.2 79.390625 
Q 344.2 79.390625 344.2 77.390625 
L 344.2 17.8 
Q 344.2 15.8 342.2 15.8 
L 259.320312 15.8 
Q 257.320312 15.8 257.320312 17.8 
L 257.320312 77.390625 
Q 257.320312 79.390625 259.320312 79.390625 
z
" style="fill: #ffffff; opacity: 0.8; stroke: #cccccc; stroke-linejoin: miter"/>
    </g>
    <g id="line2d_19">
     <path d="M 261.320312 23.575 
L 271.320312 23.575 
L 281.320312 23.575 
" style="fill: none; stroke: #ff0000; stroke-width: 2; stroke-linecap: square"/>
    </g>
    <g id="text_16">
     <!-- μ = 4.2e+03 -->
     <g transform="translate(289.320312 27.075) scale(0.1 -0.1)">
      <defs>
       <path id="Palatino-Roman-3bc" d="M 4022 306 
L 3997 163 
Q 3609 -56 3306 -56 
Q 3134 -56 3036 20 
Q 2938 97 2902 220 
Q 2866 344 2859 594 
L 2813 622 
Q 2556 266 2282 91 
Q 2009 -84 1659 -84 
Q 1203 -84 984 203 
L 922 191 
Q 941 -1044 1081 -1666 
L 1034 -1734 
Q 859 -1763 650 -1772 
L 594 -1728 
Q 625 -419 653 888 
Q 653 2288 584 2922 
L 1128 2978 
L 1194 2916 
Q 1147 2484 1147 1884 
Q 1147 834 1339 553 
Q 1531 272 1900 272 
Q 2194 272 2419 431 
Q 2644 591 2750 862 
Q 2856 1134 2856 1647 
Q 2856 2419 2831 2922 
L 3363 2978 
L 3428 2916 
Q 3406 2709 3379 2162 
Q 3353 1616 3353 1353 
Q 3353 888 3376 666 
Q 3400 444 3490 339 
Q 3581 234 3741 234 
Q 3866 234 4022 306 
z
" transform="scale(0.015625)"/>
       <path id="Palatino-Roman-3d" d="M 3656 2300 
L 3656 2016 
L 238 2016 
L 238 2300 
L 3656 2300 
z
M 3656 1228 
L 3656 944 
L 238 944 
L 238 1228 
L 3656 1228 
z
" transform="scale(0.015625)"/>
       <path id="Palatino-Roman-2b" d="M 2091 2000 
L 3569 2000 
L 3569 1716 
L 2091 1716 
L 2091 238 
L 1803 238 
L 1803 1716 
L 325 1716 
L 325 2000 
L 1803 2000 
L 1803 3478 
L 2091 3478 
L 2091 2000 
z
" transform="scale(0.015625)"/>
      </defs>
      <use xlink:href="#Palatino-Roman-3bc"/>
      <use xlink:href="#Palatino-Roman-20" x="64.697266"/>
      <use xlink:href="#Palatino-Roman-3d" x="89.697266"/>
      <use xlink:href="#Palatino-Roman-20" x="150.292969"/>
      <use xlink:href="#Palatino-Roman-34" x="175.292969"/>
      <use xlink:href="#Palatino-Roman-2e" x="225.292969"/>
      <use xlink:href="#Palatino-Roman-32" x="250.292969"/>
      <use xlink:href="#Palatino-Roman-65" x="300.292969"/>
      <use xlink:href="#Palatino-Roman-2b" x="348.193359"/>
      <use xlink:href="#Palatino-Roman-30" x="408.789062"/>
      <use xlink:href="#Palatino-Roman-33" x="458.789062"/>
     </g>
    </g>
    <g id="line2d_20">
     <path d="M 261.320312 38.61875 
L 271.320312 38.61875 
L 281.320312 38.61875 
" style="fill: none; stroke-dasharray: 5.55,2.4; stroke-dashoffset: 0; stroke: #ff0000; stroke-width: 1.5"/>
    </g>
    <g id="text_17">
     <!-- μ ± σ -->
     <g transform="translate(289.320312 42.11875) scale(0.1 -0.1)">
      <defs>
       <path id="Palatino-Roman-b1" d="M 1903 2278 
L 3381 2278 
L 3381 1994 
L 1903 1994 
L 1903 516 
L 1616 516 
L 1616 1994 
L 138 1994 
L 138 2278 
L 1616 2278 
L 1616 3756 
L 1903 3756 
L 1903 2278 
z
M 138 0 
L 138 288 
L 3381 288 
L 3381 0 
L 138 0 
z
" transform="scale(0.015625)"/>
       <path id="Palatino-Roman-3c3" d="M 3831 3000 
L 3866 2944 
Q 3806 2781 3772 2572 
Q 3503 2591 2703 2631 
L 2675 2578 
Q 2956 2453 3081 2300 
Q 3213 2034 3213 1669 
Q 3213 1188 3011 752 
Q 2809 316 2471 111 
Q 2134 -94 1694 -94 
Q 1056 -94 634 304 
Q 213 703 213 1403 
Q 213 1897 422 2234 
Q 631 2572 973 2742 
Q 1316 2913 1897 2913 
L 2425 2903 
Q 3269 2903 3831 3000 
z
M 781 1400 
Q 781 738 1051 403 
Q 1322 69 1766 69 
Q 2266 69 2517 466 
Q 2769 863 2769 1525 
Q 2769 2113 2559 2431 
Q 2350 2750 1853 2750 
Q 1309 2750 1045 2387 
Q 781 2025 781 1400 
z
" transform="scale(0.015625)"/>
      </defs>
      <use xlink:href="#Palatino-Roman-3bc"/>
      <use xlink:href="#Palatino-Roman-20" x="64.697266"/>
      <use xlink:href="#Palatino-Roman-b1" x="89.697266"/>
      <use xlink:href="#Palatino-Roman-20" x="144.580078"/>
      <use xlink:href="#Palatino-Roman-3c3" x="169.580078"/>
     </g>
    </g>
    <g id="line2d_21">
     <path d="M 261.320312 54.092188 
L 271.320312 54.092188 
L 281.320312 54.092188 
" style="fill: none; stroke: #000000; stroke-width: 2; stroke-linecap: square"/>
    </g>
    <g id="text_18">
     <!-- N(μ, σ) -->
     <g transform="translate(289.320312 57.592188) scale(0.1 -0.1)">
      <defs>
       <path id="Palatino-Roman-4e" d="M 178 0 
L 178 197 
Q 506 200 609 247 
Q 653 266 672 306 
Q 703 369 716 634 
Q 734 1047 734 1347 
L 734 3894 
Q 734 3997 722 4028 
Q 697 4084 609 4163 
Q 553 4213 479 4227 
Q 406 4241 153 4244 
L 153 4441 
Q 675 4428 809 4428 
Q 1038 4428 1263 4441 
Q 1528 4094 1653 3928 
L 2300 3131 
L 3244 1994 
Q 3697 1450 3972 1138 
Q 4147 931 4266 813 
L 4266 3097 
Q 4266 3403 4244 3816 
Q 4231 4075 4203 4138 
Q 4181 4178 4138 4197 
Q 4034 4241 3709 4244 
L 3709 4441 
Q 4078 4428 4456 4428 
Q 4813 4428 5103 4441 
L 5103 4244 
Q 4778 4241 4675 4197 
Q 4631 4178 4613 4134 
Q 4581 4075 4569 3806 
Q 4550 3394 4550 3097 
L 4550 1594 
Q 4550 1138 4566 -109 
L 4244 -16 
L 4169 0 
Q 4150 6 4134 19 
Q 4113 34 4016 144 
Q 3756 438 3634 588 
L 3231 1097 
L 1016 3744 
L 1016 1347 
Q 1016 1041 1038 625 
Q 1050 366 1078 306 
Q 1100 263 1144 244 
Q 1247 200 1572 197 
L 1572 0 
Q 1297 22 966 22 
Q 603 22 178 0 
z
" transform="scale(0.015625)"/>
       <path id="Palatino-Roman-2c" d="M -44 -875 
Q 194 -481 294 -264 
Q 394 -47 450 166 
Q 478 272 525 628 
L 863 713 
Q 931 734 1163 816 
L 1244 728 
Q 856 -175 300 -831 
L 34 -953 
L -44 -875 
z
" transform="scale(0.015625)"/>
      </defs>
      <use xlink:href="#Palatino-Roman-4e"/>
      <use xlink:href="#Palatino-Roman-28" x="83.105469"/>
      <use xlink:href="#Palatino-Roman-3bc" x="116.40625"/>
      <use xlink:href="#Palatino-Roman-2c" x="181.103516"/>
      <use xlink:href="#Palatino-Roman-20" x="206.103516"/>
      <use xlink:href="#Palatino-Roman-3c3" x="231.103516"/>
      <use xlink:href="#Palatino-Roman-29" x="291.552734"/>
     </g>
    </g>
    <g id="patch_90">
     <path d="M 261.320312 72.635938 
L 281.320312 72.635938 
L 281.320312 65.635938 
L 261.320312 65.635938 
z
" style="fill: #1f77b4; fill-opacity: 0.5; stroke: #000000; stroke-width: 0.338203; stroke-linejoin: miter"/>
    </g>
    <g id="text_19">
     <!-- Measured -->
     <g transform="translate(289.320312 72.635938) scale(0.1 -0.1)">
      <defs>
       <path id="Palatino-Roman-4d" d="M 119 4241 
L 119 4441 
Q 447 4428 747 4428 
Q 1050 4428 1328 4441 
Q 1603 3816 1831 3344 
L 3016 906 
L 4084 3141 
Q 4522 4053 4669 4441 
Q 5000 4428 5228 4428 
Q 5438 4428 5906 4441 
L 5906 4241 
Q 5534 4234 5454 4207 
Q 5375 4181 5344 4134 
Q 5303 4072 5297 3831 
Q 5294 3769 5281 2944 
L 5281 1497 
Q 5281 1072 5294 669 
Q 5303 372 5339 315 
Q 5375 259 5454 232 
Q 5534 206 5906 200 
L 5906 0 
Q 5275 28 5016 28 
Q 4806 28 4091 0 
L 4091 200 
Q 4463 206 4544 232 
Q 4625 259 4653 306 
Q 4694 369 4700 609 
Q 4703 675 4716 1497 
L 4716 3791 
L 3638 1534 
Q 3384 1006 3241 684 
Q 3138 450 2928 -59 
L 2806 -59 
Q 2766 59 2731 131 
L 2519 584 
L 1025 3688 
L 1025 1497 
Q 1025 1072 1038 669 
Q 1047 372 1083 315 
Q 1119 259 1198 232 
Q 1278 206 1650 200 
L 1650 0 
L 897 25 
L 119 0 
L 119 200 
Q 488 206 569 232 
Q 650 259 681 306 
Q 719 369 728 609 
Q 731 675 741 1497 
L 741 2944 
Q 741 3369 731 3775 
Q 722 4072 686 4126 
Q 650 4181 570 4207 
Q 491 4234 119 4241 
z
" transform="scale(0.015625)"/>
       <path id="Palatino-Roman-75" d="M 3697 178 
L 3697 0 
Q 3288 22 3078 22 
Q 2847 22 2609 0 
Q 2628 253 2638 569 
Q 2450 419 2191 159 
Q 2131 100 2075 72 
Q 1941 -3 1806 -36 
Q 1672 -69 1484 -69 
Q 1231 -69 1061 0 
Q 891 69 769 209 
Q 678 313 629 477 
Q 581 641 581 872 
Q 581 981 589 1078 
Q 597 1175 597 1269 
L 597 1803 
Q 597 1884 588 2213 
Q 581 2419 559 2481 
Q 547 2513 519 2531 
Q 472 2563 353 2563 
Q 181 2563 81 2566 
L 81 2744 
Q 753 2819 1056 2984 
Q 1106 3013 1134 3013 
Q 1156 3013 1170 2997 
Q 1184 2981 1184 2950 
Q 1184 2925 1181 2888 
Q 1169 2788 1159 2503 
Q 1141 1981 1141 1803 
L 1141 1194 
Q 1141 813 1192 658 
Q 1244 503 1392 411 
Q 1541 319 1759 319 
Q 1909 319 2057 370 
Q 2206 422 2325 519 
Q 2413 591 2503 713 
Q 2572 803 2594 851 
Q 2616 900 2622 994 
Q 2638 1269 2638 1541 
L 2638 1803 
Q 2638 1884 2628 2213 
Q 2622 2419 2600 2481 
Q 2588 2513 2559 2531 
Q 2513 2563 2394 2563 
Q 2222 2563 2122 2566 
L 2122 2744 
Q 2794 2819 3097 2984 
Q 3147 3013 3175 3013 
Q 3197 3013 3211 2997 
Q 3225 2981 3225 2950 
Q 3225 2925 3222 2888 
Q 3213 2788 3200 2491 
Q 3181 1981 3181 1803 
L 3181 1375 
L 3188 941 
Q 3197 563 3200 497 
Q 3203 341 3234 269 
Q 3250 241 3275 220 
Q 3300 200 3350 188 
Q 3369 184 3697 178 
z
" transform="scale(0.015625)"/>
       <path id="Palatino-Roman-64" d="M 2122 4244 
L 2122 4422 
Q 2469 4459 2708 4511 
Q 2947 4563 3175 4638 
L 3216 4609 
Q 3203 4344 3188 3584 
L 3175 3084 
L 3175 1128 
Q 3175 809 3186 576 
Q 3197 344 3225 298 
Q 3253 253 3318 225 
Q 3384 197 3709 169 
L 3709 0 
Q 3328 22 3172 22 
Q 3038 22 2622 0 
Q 2631 216 2638 581 
Q 2513 491 2302 309 
Q 2091 128 1972 13 
Q 1722 -50 1531 -50 
Q 1178 -50 881 125 
Q 584 300 423 633 
Q 263 966 263 1381 
Q 263 1694 361 1973 
Q 459 2253 609 2406 
Q 694 2494 994 2672 
Q 1294 2850 1480 2929 
Q 1666 3009 1884 3009 
Q 2081 3009 2270 2961 
Q 2459 2913 2638 2813 
L 2638 3634 
Q 2638 4069 2600 4163 
Q 2588 4197 2553 4213 
Q 2491 4241 2122 4244 
z
M 2638 2278 
Q 2425 2513 2192 2620 
Q 1959 2728 1734 2728 
Q 1478 2728 1262 2597 
Q 1047 2466 933 2200 
Q 819 1934 819 1563 
Q 819 991 1103 669 
Q 1388 347 1788 347 
Q 1997 347 2162 434 
Q 2328 522 2453 690 
Q 2578 859 2613 1066 
Q 2638 1203 2638 1744 
L 2638 2278 
z
" transform="scale(0.015625)"/>
      </defs>
      <use xlink:href="#Palatino-Roman-4d"/>
      <use xlink:href="#Palatino-Roman-65" x="94.580078"/>
      <use xlink:href="#Palatino-Roman-61" x="142.480469"/>
      <use xlink:href="#Palatino-Roman-73" x="192.480469"/>
      <use xlink:href="#Palatino-Roman-75" x="234.863281"/>
      <use xlink:href="#Palatino-Roman-72" x="295.166016"/>
      <use xlink:href="#Palatino-Roman-65" x="332.917969"/>
      <use xlink:href="#Palatino-Roman-64" x="380.818359"/>
     </g>
    </g>
   </g>
  </g>
 </g>
 <defs>
  <clipPath id="p7d16c60e6f">
   <rect x="49.71875" y="10.8" width="299.48125" height="306.8125"/>
  </clipPath>
 </defs>
</svg>
